EESchema Schematic File Version 2
LIBS:74xx
LIBS:adc-dac
LIBS:analog_switches
LIBS:atmel
LIBS:audio
LIBS:cmos4000
LIBS:conn
LIBS:contrib
LIBS:cypress
LIBS:device
LIBS:digital-audio
LIBS:display
LIBS:dsp
LIBS:intel
LIBS:interface
LIBS:linear
LIBS:memory
LIBS:microchip
LIBS:microcontrollers
LIBS:motorola
LIBS:opto
LIBS:philips
LIBS:power
LIBS:regul
LIBS:siliconi
LIBS:special
LIBS:texas
LIBS:transistors
LIBS:valves
LIBS:xilinx
LIBS:hetii
LIBS:cypress-fx2
LIBS:cypressmicro
LIBS:prolific
LIBS:digitbox-cache
EELAYER 24 0
EELAYER END
$Descr A3 16535 11693
encoding utf-8
Sheet 1 1
Title ""
Date ""
Rev ""
Comp ""
Comment1 ""
Comment2 ""
Comment3 ""
Comment4 ""
$EndDescr
$Comp
L USB-A X1
U 1 1 53C848A1
P 1170 860
F 0 "X1" V 1440 870 50  0000 L BNN
F 1 "USB-A" V 960 860 50  0000 L BNN
F 2 "con-usb-3-USB-A-H" H 1660 1310 50  0001 C CNN
F 3 "" V 1320 860 60  0000 C CNN
	1    1170 860 
	0    -1   -1   0   
$EndComp
Text Label 2460 3620 2    21   ~ 0
USB6_D+
Text Label 2460 3720 2    21   ~ 0
USB6_D-
Text Label 1270 910  0    21   ~ 0
USB7_D-
Text Label 1270 810  0    21   ~ 0
USB7_D+
Text Label 2460 3820 2    21   ~ 0
VCC_5V
Text Label 1270 1010 0    21   ~ 0
VCC_5V
Text Label 1270 710  0    21   ~ 0
GND
Text Label 2460 1410 2    21   ~ 0
GND
Text Label 670  1610 0    21   ~ 0
GND
Text Label 670  1710 0    21   ~ 0
USB1_D+
Text Label 670  1810 0    21   ~ 0
USB1_D-
Text Label 670  2260 0    21   ~ 0
USB2_D+
Text Label 670  2360 0    21   ~ 0
USB2_D-
Text Label 670  2810 0    21   ~ 0
USB3_D+
Text Label 670  2910 0    21   ~ 0
USB3_D-
Text Label 670  2710 0    21   ~ 0
GND
Text Label 2460 2010 2    21   ~ 0
USB6_D+
Text Label 2460 2110 2    21   ~ 0
USB6_D-
Text Label 2460 1910 2    21   ~ 0
GND
Text Label 2460 2510 2    21   ~ 0
USB5_D+
Text Label 2460 2610 2    21   ~ 0
USB5_D-
Text Label 2460 2710 2    21   ~ 0
VCC_5V
Text Label 2460 2410 2    21   ~ 0
GND
Text Label 2460 2910 2    21   ~ 0
GND
$Comp
L PWR_FLAG #FLG01
U 1 1 53C86A95
P 990 9230
F 0 "#FLG01" H 990 9325 30  0001 C CNN
F 1 "PWR_FLAG" H 990 9410 30  0000 C CNN
F 2 "" H 990 9230 60  0000 C CNN
F 3 "" H 990 9230 60  0000 C CNN
	1    990  9230
	1    0    0    -1  
$EndComp
$Comp
L C C7
U 1 1 53C86AF9
P 1350 9430
F 0 "C7" H 1350 9530 40  0000 L CNN
F 1 "100nF" H 1356 9345 40  0000 L CNN
F 2 "" H 1388 9280 30  0000 C CNN
F 3 "" H 1350 9430 60  0000 C CNN
	1    1350 9430
	1    0    0    -1  
$EndComp
Text Label 990  9230 0    21   ~ 0
GND
Text Label 1260 9230 0    21   ~ 0
VCC_5V
$Comp
L GND #PWR02
U 1 1 53C896F5
P 1170 9720
F 0 "#PWR02" H 1170 9720 30  0001 C CNN
F 1 "GND" H 1170 9650 30  0001 C CNN
F 2 "" H 1170 9720 60  0000 C CNN
F 3 "" H 1170 9720 60  0000 C CNN
	1    1170 9720
	1    0    0    -1  
$EndComp
Text Notes 14250 550  0    21   ~ 0
Crystal blocks
$Comp
L C C8
U 1 1 53C98C18
P 1580 9430
F 0 "C8" H 1580 9530 40  0000 L CNN
F 1 "100nF" H 1586 9345 40  0000 L CNN
F 2 "" H 1618 9280 30  0000 C CNN
F 3 "" H 1580 9430 60  0000 C CNN
	1    1580 9430
	1    0    0    -1  
$EndComp
$Comp
L C C9
U 1 1 53C98C97
P 12310 6380
F 0 "C9" H 12310 6480 40  0000 L CNN
F 1 "100nF" H 12316 6295 40  0000 L CNN
F 2 "" H 12348 6230 30  0000 C CNN
F 3 "" H 12310 6380 60  0000 C CNN
	1    12310 6380
	1    0    0    -1  
$EndComp
$Comp
L C C10
U 1 1 53C98CFF
P 2020 9430
F 0 "C10" H 2020 9530 40  0000 L CNN
F 1 "100nF" H 2026 9345 40  0000 L CNN
F 2 "" H 2058 9280 30  0000 C CNN
F 3 "" H 2020 9430 60  0000 C CNN
	1    2020 9430
	1    0    0    -1  
$EndComp
$Comp
L C C11
U 1 1 53C98DAE
P 2240 9430
F 0 "C11" H 2240 9530 40  0000 L CNN
F 1 "100nF" H 2246 9345 40  0000 L CNN
F 2 "" H 2278 9280 30  0000 C CNN
F 3 "" H 2240 9430 60  0000 C CNN
	1    2240 9430
	1    0    0    -1  
$EndComp
$Comp
L C C12
U 1 1 53C9C3A1
P 2470 9430
F 0 "C12" H 2470 9530 40  0000 L CNN
F 1 "100nF" H 2476 9345 40  0000 L CNN
F 2 "" H 2508 9280 30  0000 C CNN
F 3 "" H 2470 9430 60  0000 C CNN
	1    2470 9430
	1    0    0    -1  
$EndComp
$Comp
L C C13
U 1 1 53C9C3A7
P 2690 9430
F 0 "C13" H 2690 9530 40  0000 L CNN
F 1 "100nF" H 2696 9345 40  0000 L CNN
F 2 "" H 2728 9280 30  0000 C CNN
F 3 "" H 2690 9430 60  0000 C CNN
	1    2690 9430
	1    0    0    -1  
$EndComp
$Comp
L C C14
U 1 1 53C9C3AD
P 2910 9430
F 0 "C14" H 2910 9530 40  0000 L CNN
F 1 "100nF" H 2916 9345 40  0000 L CNN
F 2 "" H 2948 9280 30  0000 C CNN
F 3 "" H 2910 9430 60  0000 C CNN
	1    2910 9430
	1    0    0    -1  
$EndComp
$Comp
L C C15
U 1 1 53C9C3B3
P 3130 9430
F 0 "C15" H 3130 9530 40  0000 L CNN
F 1 "100nF" H 3136 9345 40  0000 L CNN
F 2 "" H 3168 9280 30  0000 C CNN
F 3 "" H 3130 9430 60  0000 C CNN
	1    3130 9430
	1    0    0    -1  
$EndComp
$Comp
L PWR_FLAG #FLG03
U 1 1 53C86A48
P 1230 9230
F 0 "#FLG03" H 1230 9325 30  0001 C CNN
F 1 "PWR_FLAG" H 1230 9410 30  0000 C CNN
F 2 "" H 1230 9230 60  0000 C CNN
F 3 "" H 1230 9230 60  0000 C CNN
	1    1230 9230
	1    0    0    -1  
$EndComp
$Comp
L ATTINY45-S IC2
U 1 1 53CA47D2
P 10870 6390
F 0 "IC2" H 9720 6790 40  0000 C CNN
F 1 "ATTINY45-S" H 11870 5990 40  0000 C CNN
F 2 "SO8-200" H 11820 6390 35  0000 C CIN
F 3 "" H 10870 6390 60  0000 C CNN
	1    10870 6390
	1    0    0    -1  
$EndComp
$Comp
L R R21
U 1 1 53CA5D49
P 9200 6140
F 0 "R21" V 9130 6030 40  0000 C CNN
F 1 "68" V 9207 6141 40  0000 C CNN
F 2 "" V 9130 6140 30  0000 C CNN
F 3 "" H 9200 6140 30  0000 C CNN
	1    9200 6140
	0    1    1    0   
$EndComp
$Comp
L R R24
U 1 1 53CA5E77
P 9200 6340
F 0 "R24" V 9130 6230 40  0000 C CNN
F 1 "68" V 9207 6341 40  0000 C CNN
F 2 "" V 9130 6340 30  0000 C CNN
F 3 "" H 9200 6340 30  0000 C CNN
	1    9200 6340
	0    1    1    0   
$EndComp
$Comp
L R R18
U 1 1 53CA5FF8
P 9200 5940
F 0 "R18" V 9130 5830 40  0000 C CNN
F 1 "2k2" V 9207 5941 40  0000 C CNN
F 2 "" V 9130 5940 30  0000 C CNN
F 3 "" H 9200 5940 30  0000 C CNN
	1    9200 5940
	0    1    1    0   
$EndComp
Text Label 8420 6340 0    21   ~ 0
USB2_D+
Text Label 9830 5450 2    21   ~ 0
VCC_5V
$Comp
L ZENER D6
U 1 1 53CAACBF
P 8860 6590
F 0 "D6" H 8860 6690 50  0000 C CNN
F 1 "3,3V" H 8860 6490 40  0000 C CNN
F 2 "" H 8860 6590 60  0000 C CNN
F 3 "" H 8860 6590 60  0000 C CNN
	1    8860 6590
	0    -1   -1   0   
$EndComp
$Comp
L ZENER D5
U 1 1 53CAB0C8
P 8590 6590
F 0 "D5" H 8590 6690 50  0000 C CNN
F 1 "3,3V" H 8590 6490 40  0000 C CNN
F 2 "" H 8590 6590 60  0000 C CNN
F 3 "" H 8590 6590 60  0000 C CNN
	1    8590 6590
	0    -1   -1   0   
$EndComp
Text Label 8420 6140 0    21   ~ 0
USB2_D-
$Comp
L GND #PWR04
U 1 1 53CAD8F2
P 8720 6870
F 0 "#PWR04" H 8720 6870 30  0001 C CNN
F 1 "GND" H 8720 6800 30  0001 C CNN
F 2 "" H 8720 6870 60  0000 C CNN
F 3 "" H 8720 6870 60  0000 C CNN
	1    8720 6870
	1    0    0    -1  
$EndComp
$Comp
L GND #PWR05
U 1 1 53CADB21
P 12220 6870
F 0 "#PWR05" H 12220 6870 30  0001 C CNN
F 1 "GND" H 12220 6800 30  0001 C CNN
F 2 "" H 12220 6870 60  0000 C CNN
F 3 "" H 12220 6870 60  0000 C CNN
	1    12220 6870
	1    0    0    -1  
$EndComp
$Comp
L C C3
U 1 1 53CAEBFB
P 14370 1040
F 0 "C3" H 14370 1140 40  0000 L CNN
F 1 "22pF" H 14376 955 40  0000 L CNN
F 2 "" H 14408 890 30  0000 C CNN
F 3 "" H 14370 1040 60  0000 C CNN
	1    14370 1040
	1    0    0    -1  
$EndComp
$Comp
L C C4
U 1 1 53CAEC01
P 14970 1040
F 0 "C4" H 14970 1140 40  0000 L CNN
F 1 "22pF" H 14976 955 40  0000 L CNN
F 2 "" H 15008 890 30  0000 C CNN
F 3 "" H 14970 1040 60  0000 C CNN
	1    14970 1040
	1    0    0    -1  
$EndComp
$Comp
L CRYSTAL X2
U 1 1 53CAEC07
P 14670 760
F 0 "X2" H 14670 910 60  0000 C CNN
F 1 "12MHz" H 14670 610 60  0000 C CNN
F 2 "" H 14670 760 60  0000 C CNN
F 3 "" H 14670 760 60  0000 C CNN
	1    14670 760 
	1    0    0    -1  
$EndComp
$Comp
L GND #PWR06
U 1 1 53CAEC0D
P 14670 1340
F 0 "#PWR06" H 14670 1340 30  0001 C CNN
F 1 "GND" H 14670 1270 30  0001 C CNN
F 2 "" H 14670 1340 60  0000 C CNN
F 3 "" H 14670 1340 60  0000 C CNN
	1    14670 1340
	1    0    0    -1  
$EndComp
Text Label 14370 660  0    21   ~ 0
T45_XTAL1
Text Label 14970 660  2    21   ~ 0
T45_XTAL2
Text Label 9370 6440 0    21   ~ 0
T45_XTAL1
Text Label 9370 6540 0    21   ~ 0
T45_XTAL2
$Comp
L C C16
U 1 1 53CB0A8E
P 3350 9430
F 0 "C16" H 3350 9530 40  0000 L CNN
F 1 "100nF" H 3356 9345 40  0000 L CNN
F 2 "" H 3388 9280 30  0000 C CNN
F 3 "" H 3350 9430 60  0000 C CNN
	1    3350 9430
	1    0    0    -1  
$EndComp
$Comp
L R R17
U 1 1 53CB4B2F
P 9200 5780
F 0 "R17" V 9280 5890 40  0000 C CNN
F 1 "10k" V 9207 5781 40  0000 C CNN
F 2 "" V 9130 5780 30  0000 C CNN
F 3 "" H 9200 5780 30  0000 C CNN
	1    9200 5780
	0    -1   -1   0   
$EndComp
$Comp
L R R15
U 1 1 53CB51B4
P 9200 5600
F 0 "R15" V 9130 5490 40  0000 C CNN
F 1 "10k" V 9207 5601 40  0000 C CNN
F 2 "" V 9130 5600 30  0000 C CNN
F 3 "" H 9200 5600 30  0000 C CNN
	1    9200 5600
	0    1    1    0   
$EndComp
Text Label 7800 5600 0    21   ~ 0
T45_SCL
Text Label 7800 5780 0    21   ~ 0
T45_SDA
$Comp
L CONN_5X2 P3
U 1 1 53CD3228
P 12970 4090
F 0 "P3" H 12970 4390 60  0000 C CNN
F 1 "CONN_5X2" V 12970 4090 50  0000 C CNN
F 2 "" H 12970 4090 60  0000 C CNN
F 3 "" H 12970 4090 60  0000 C CNN
	1    12970 4090
	1    0    0    -1  
$EndComp
$Comp
L BC817-40 T2
U 1 1 53CD5293
P 10020 1270
F 0 "T2" H 10020 1121 40  0000 R CNN
F 1 "BC817-40" H 10020 1420 40  0000 R CNN
F 2 "SOT-23" H 9820 1372 29  0000 C CNN
F 3 "" H 10020 1270 60  0000 C CNN
	1    10020 1270
	1    0    0    -1  
$EndComp
$Comp
L BC817-40 Q1
U 1 1 53CD54B8
P 11450 2140
F 0 "Q1" H 11450 1991 40  0000 R CNN
F 1 "BC817-40" H 11450 2290 40  0000 R CNN
F 2 "SOT-23" H 11250 2242 29  0000 C CNN
F 3 "" H 11450 2140 60  0000 C CNN
	1    11450 2140
	1    0    0    -1  
$EndComp
$Comp
L BC817-40 T4
U 1 1 53CD56AB
P 12490 2730
F 0 "T4" H 12490 2581 40  0000 R CNN
F 1 "BC817-40" H 12490 2880 40  0000 R CNN
F 2 "SOT-23" H 12290 2832 29  0000 C CNN
F 3 "" H 12490 2730 60  0000 C CNN
	1    12490 2730
	1    0    0    -1  
$EndComp
$Comp
L BC807-40 T3
U 1 1 53CD5F18
P 12490 1940
F 0 "T3" H 12490 1791 40  0000 R CNN
F 1 "BC807-40" H 12490 2090 40  0000 R CNN
F 2 "SOT-23" H 12290 2042 29  0000 C CNN
F 3 "" H 12490 1940 60  0000 C CNN
	1    12490 1940
	1    0    0    1   
$EndComp
$Comp
L BC807-40 T1
U 1 1 53CD60A3
P 13590 1180
F 0 "T1" H 13590 1031 40  0000 R CNN
F 1 "BC807-40" H 13590 1330 40  0000 R CNN
F 2 "SOT-23" H 13390 1282 29  0000 C CNN
F 3 "" H 13590 1180 60  0000 C CNN
	1    13590 1180
	0    -1   -1   0   
$EndComp
$Comp
L R R9
U 1 1 53CD6322
P 11930 1940
F 0 "R9" V 12010 1940 40  0000 C CNN
F 1 "47k" V 11937 1941 40  0000 C CNN
F 2 "" V 11860 1940 30  0000 C CNN
F 3 "" H 11930 1940 30  0000 C CNN
	1    11930 1940
	0    1    1    0   
$EndComp
$Comp
L R R6
U 1 1 53CD6A93
P 12340 1630
F 0 "R6" V 12420 1630 40  0000 C CNN
F 1 "47k" V 12347 1631 40  0000 C CNN
F 2 "" V 12270 1630 30  0000 C CNN
F 3 "" H 12340 1630 30  0000 C CNN
	1    12340 1630
	0    1    1    0   
$EndComp
$Comp
L GND #PWR07
U 1 1 53CDA9CB
P 11550 2400
F 0 "#PWR07" H 11550 2400 30  0001 C CNN
F 1 "GND" H 11550 2330 30  0001 C CNN
F 2 "" H 11550 2400 60  0000 C CNN
F 3 "" H 11550 2400 60  0000 C CNN
	1    11550 2400
	1    0    0    -1  
$EndComp
$Comp
L R R4
U 1 1 53CDB258
P 11010 1320
F 0 "R4" V 11090 1320 40  0000 C CNN
F 1 "47k" V 11017 1321 40  0000 C CNN
F 2 "" V 10940 1320 30  0000 C CNN
F 3 "" H 11010 1320 30  0000 C CNN
	1    11010 1320
	1    0    0    -1  
$EndComp
$Comp
L R R8
U 1 1 53CDB43F
P 11010 1910
F 0 "R8" V 11090 1910 40  0000 C CNN
F 1 "10k" V 11017 1911 40  0000 C CNN
F 2 "" V 10940 1910 30  0000 C CNN
F 3 "" H 11010 1910 30  0000 C CNN
	1    11010 1910
	1    0    0    -1  
$EndComp
$Comp
L DIODE D1
U 1 1 53CDD117
P 10460 1070
F 0 "D1" H 10460 1170 40  0000 C CNN
F 1 "1n4148" H 10460 970 40  0000 C CNN
F 2 "" H 10460 1070 60  0000 C CNN
F 3 "" H 10460 1070 60  0000 C CNN
	1    10460 1070
	1    0    0    -1  
$EndComp
$Comp
L R R3
U 1 1 53CDDEB8
P 9500 1270
F 0 "R3" V 9580 1270 40  0000 C CNN
F 1 "10k" V 9507 1271 40  0000 C CNN
F 2 "" V 9430 1270 30  0000 C CNN
F 3 "" H 9500 1270 30  0000 C CNN
	1    9500 1270
	0    1    1    0   
$EndComp
$Comp
L INDUCTOR L1
U 1 1 53CDE807
P 9890 1000
F 0 "L1" V 9840 1000 40  0000 C CNN
F 1 "1mH" V 9990 1000 40  0000 C CNN
F 2 "" H 9890 1000 60  0000 C CNN
F 3 "" H 9890 1000 60  0000 C CNN
	1    9890 1000
	0    -1   -1   0   
$EndComp
Text GLabel 9590 850  1    21   Input ~ 0
VCC_5V
$Comp
L CAPAPOL C1
U 1 1 53CDFB8E
P 11320 1270
F 0 "C1" H 11370 1370 40  0000 L CNN
F 1 "4,7uF" H 11370 1170 40  0000 L CNN
F 2 "" H 11420 1120 30  0000 C CNN
F 3 "" H 11320 1270 300 0000 C CNN
	1    11320 1270
	1    0    0    -1  
$EndComp
$Comp
L C C2
U 1 1 53CDFF47
P 11770 1270
F 0 "C2" H 11770 1370 40  0000 L CNN
F 1 "100nF" H 11776 1185 40  0000 L CNN
F 2 "" H 11808 1120 30  0000 C CNN
F 3 "" H 11770 1270 60  0000 C CNN
	1    11770 1270
	1    0    0    -1  
$EndComp
$Comp
L GND #PWR08
U 1 1 53CE0987
P 11560 1520
F 0 "#PWR08" H 11560 1520 30  0001 C CNN
F 1 "GND" H 11560 1450 30  0001 C CNN
F 2 "" H 11560 1520 60  0000 C CNN
F 3 "" H 11560 1520 60  0000 C CNN
	1    11560 1520
	1    0    0    -1  
$EndComp
$Comp
L GND #PWR09
U 1 1 53CE0FBB
P 10120 1530
F 0 "#PWR09" H 10120 1530 30  0001 C CNN
F 1 "GND" H 10120 1460 30  0001 C CNN
F 2 "" H 10120 1530 60  0000 C CNN
F 3 "" H 10120 1530 60  0000 C CNN
	1    10120 1530
	1    0    0    -1  
$EndComp
$Comp
L R R11
U 1 1 53CE1EC7
P 11920 2730
F 0 "R11" V 12000 2730 40  0000 C CNN
F 1 "10K" V 11927 2731 40  0000 C CNN
F 2 "" V 11850 2730 30  0000 C CNN
F 3 "" H 11920 2730 30  0000 C CNN
	1    11920 2730
	0    1    1    0   
$EndComp
$Comp
L R R5
U 1 1 53CE3CEF
P 12780 1330
F 0 "R5" V 12860 1330 40  0000 C CNN
F 1 "4k7" V 12787 1331 40  0000 C CNN
F 2 "" V 12710 1330 30  0000 C CNN
F 3 "" H 12780 1330 30  0000 C CNN
	1    12780 1330
	-1   0    0    1   
$EndComp
$Comp
L DIODE D2
U 1 1 53CE4016
P 13110 1080
F 0 "D2" H 13110 1180 40  0000 C CNN
F 1 "1n4148" H 13110 980 40  0000 C CNN
F 2 "" H 13110 1080 60  0000 C CNN
F 3 "" H 13110 1080 60  0000 C CNN
	1    13110 1080
	-1   0    0    1   
$EndComp
$Comp
L GND #PWR010
U 1 1 53CE55A2
P 12590 2980
F 0 "#PWR010" H 12590 2980 30  0001 C CNN
F 1 "GND" H 12590 2910 30  0001 C CNN
F 2 "" H 12590 2980 60  0000 C CNN
F 3 "" H 12590 2980 60  0000 C CNN
	1    12590 2980
	1    0    0    -1  
$EndComp
$Comp
L R R7
U 1 1 53CE67FC
P 13590 1690
F 0 "R7" V 13670 1690 40  0000 C CNN
F 1 "10k" V 13597 1691 40  0000 C CNN
F 2 "" V 13520 1690 30  0000 C CNN
F 3 "" H 13590 1690 30  0000 C CNN
	1    13590 1690
	-1   0    0    1   
$EndComp
$Comp
L GND #PWR011
U 1 1 53CE85E4
P 11010 2220
F 0 "#PWR011" H 11010 2220 30  0001 C CNN
F 1 "GND" H 11010 2150 30  0001 C CNN
F 2 "" H 11010 2220 60  0000 C CNN
F 3 "" H 11010 2220 60  0000 C CNN
	1    11010 2220
	1    0    0    -1  
$EndComp
Text Label 11070 2140 0    21   ~ 0
T168_PB2
Text Label 10430 1860 3    21   ~ 0
T168_PC0
Text Label 9080 1270 0    21   ~ 0
T168_PB1
Text Label 13460 1940 0    21   ~ 0
T168_PB0
Text Label 11300 2730 0    21   ~ 0
T168_PC6
Text GLabel 13790 930  1    21   Input ~ 0
VCC_5V
$Comp
L 74LS126 U3
U 3 1 53CF3D0C
P 12150 3240
F 0 "U3" H 12250 3440 60  0000 C CNN
F 1 "74HC126N" H 12400 3090 60  0000 C CNN
F 2 "" H 12150 3240 60  0000 C CNN
F 3 "" H 12150 3240 60  0000 C CNN
	3    12150 3240
	1    0    0    1   
$EndComp
$Comp
L 74LS126 U3
U 1 1 53CF3F0F
P 11740 4550
F 0 "U3" H 11840 4750 60  0000 C CNN
F 1 "74HC126N" H 11990 4400 60  0000 C CNN
F 2 "" H 11740 4550 60  0000 C CNN
F 3 "" H 11740 4550 60  0000 C CNN
	1    11740 4550
	1    0    0    1   
$EndComp
Text Label 10150 4220 0    21   ~ 0
T168_PB4
$Comp
L GND #PWR012
U 1 1 53CF91FB
P 11700 3310
F 0 "#PWR012" H 11700 3310 30  0001 C CNN
F 1 "GND" H 11700 3240 30  0001 C CNN
F 2 "" H 11700 3310 60  0000 C CNN
F 3 "" H 11700 3310 60  0000 C CNN
	1    11700 3310
	1    0    0    -1  
$EndComp
$Comp
L R R13
U 1 1 53CF95C1
P 11820 2940
F 0 "R13" V 11900 2940 40  0000 C CNN
F 1 "10K" V 11827 2941 40  0000 C CNN
F 2 "" V 11750 2940 30  0000 C CNN
F 3 "" H 11820 2940 30  0000 C CNN
	1    11820 2940
	0    1    1    0   
$EndComp
$Comp
L 74LS126 U3
U 2 1 53CD4CB7
P 11740 3890
F 0 "U3" H 11840 4090 60  0000 C CNN
F 1 "74HC126N" H 11990 3740 60  0000 C CNN
F 2 "" H 11740 3890 60  0000 C CNN
F 3 "" H 11740 3890 60  0000 C CNN
	2    11740 3890
	1    0    0    -1  
$EndComp
Text Label 10530 3890 0    21   ~ 0
T168_PD4
$Comp
L R R25
U 1 1 53D0D23D
P 10910 4550
F 0 "R25" V 10990 4550 40  0000 C CNN
F 1 "10K" V 10917 4551 40  0000 C CNN
F 2 "" V 10840 4550 30  0000 C CNN
F 3 "" H 10910 4550 30  0000 C CNN
	1    10910 4550
	0    1    1    0   
$EndComp
Text Label 9810 4550 0    21   ~ 0
T168_PC2
$Comp
L GND #PWR013
U 1 1 53D0DCDE
P 12190 5090
F 0 "#PWR013" H 12190 5090 30  0001 C CNN
F 1 "GND" H 12190 5020 30  0001 C CNN
F 2 "" H 12190 5090 60  0000 C CNN
F 3 "" H 12190 5090 60  0000 C CNN
	1    12190 5090
	1    0    0    -1  
$EndComp
Text Label 10430 5000 0    21   ~ 0
T168_PC3
$Comp
L R R16
U 1 1 53D103F0
P 10990 3890
F 0 "R16" V 11070 3890 40  0000 C CNN
F 1 "10K" V 10997 3891 40  0000 C CNN
F 2 "" V 10920 3890 30  0000 C CNN
F 3 "" H 10990 3890 30  0000 C CNN
	1    10990 3890
	0    1    1    0   
$EndComp
$Comp
L GND #PWR014
U 1 1 53D13849
P 13520 4370
F 0 "#PWR014" H 13520 4370 30  0001 C CNN
F 1 "GND" H 13520 4300 30  0001 C CNN
F 2 "" H 13520 4370 60  0000 C CNN
F 3 "" H 13520 4370 60  0000 C CNN
	1    13520 4370
	1    0    0    -1  
$EndComp
$Comp
L R R19
U 1 1 53D13FA1
P 13880 4190
F 0 "R19" V 13810 4080 40  0000 C CNN
F 1 "10K" V 13887 4191 40  0000 C CNN
F 2 "" V 13810 4190 30  0000 C CNN
F 3 "" H 13880 4190 30  0000 C CNN
	1    13880 4190
	0    1    1    0   
$EndComp
$Comp
L R R22
U 1 1 53D14056
P 13880 4290
F 0 "R22" V 13960 4180 40  0000 C CNN
F 1 "10K" V 13887 4291 40  0000 C CNN
F 2 "" V 13810 4290 30  0000 C CNN
F 3 "" H 13880 4290 30  0000 C CNN
	1    13880 4290
	0    1    1    0   
$EndComp
Text Label 14960 4190 0    21   ~ 0
T168_TXD
Text Label 14960 4290 0    21   ~ 0
T168_RXD
$Comp
L R R14
U 1 1 53D1639C
P 12970 3660
F 0 "R14" V 13050 3660 40  0000 C CNN
F 1 "1K" V 12977 3661 40  0000 C CNN
F 2 "" V 12900 3660 30  0000 C CNN
F 3 "" H 12970 3660 30  0000 C CNN
	1    12970 3660
	0    1    1    0   
$EndComp
Text Label 13690 3660 0    21   ~ 0
SCI
Text Label 13220 3660 0    21   ~ 0
T168_PB3
$Comp
L R R10
U 1 1 53D1EF93
P 6740 2520
F 0 "R10" V 6820 2520 40  0000 C CNN
F 1 "33k" V 6747 2521 40  0000 C CNN
F 2 "" V 6670 2520 30  0000 C CNN
F 3 "" H 6740 2520 30  0000 C CNN
	1    6740 2520
	1    0    0    -1  
$EndComp
$Comp
L R R12
U 1 1 53D1F186
P 6740 3110
F 0 "R12" V 6820 3110 40  0000 C CNN
F 1 "22k" V 6747 3111 40  0000 C CNN
F 2 "" V 6670 3110 30  0000 C CNN
F 3 "" H 6740 3110 30  0000 C CNN
	1    6740 3110
	1    0    0    -1  
$EndComp
$Comp
L GND #PWR015
U 1 1 53D1F613
P 6740 3400
F 0 "#PWR015" H 6740 3400 30  0001 C CNN
F 1 "GND" H 6740 3330 30  0001 C CNN
F 2 "" H 6740 3400 60  0000 C CNN
F 3 "" H 6740 3400 60  0000 C CNN
	1    6740 3400
	1    0    0    -1  
$EndComp
Text Label 9100 3210 0    21   ~ 0
T168_RXD
Text Label 9100 3310 0    21   ~ 0
T168_TXD
Text Label 7080 1910 0    21   ~ 0
VCC_5V
Text Label 7080 1710 0    21   ~ 0
VCC_5V
Text Label 7080 1610 0    21   ~ 0
VCC_5V
Text Label 7080 3910 0    21   ~ 0
GND
Text Label 7080 3810 0    21   ~ 0
GND
Text Label 7080 3710 0    21   ~ 0
GND
$Comp
L R R20
U 1 1 53D2A40F
P 8300 4250
F 0 "R20" V 8380 4250 40  0000 C CNN
F 1 "68" V 8307 4251 40  0000 C CNN
F 2 "" V 8230 4250 30  0000 C CNN
F 3 "" H 8300 4250 30  0000 C CNN
	1    8300 4250
	0    1    1    0   
$EndComp
$Comp
L R R23
U 1 1 53D2A4D9
P 8300 4440
F 0 "R23" V 8380 4440 40  0000 C CNN
F 1 "68" V 8307 4441 40  0000 C CNN
F 2 "" V 8230 4440 30  0000 C CNN
F 3 "" H 8300 4440 30  0000 C CNN
	1    8300 4440
	0    1    1    0   
$EndComp
$Comp
L ZENER D4
U 1 1 53D2A5E0
P 8000 4640
F 0 "D4" H 8000 4740 50  0000 C CNN
F 1 "3,3v" H 8000 4540 40  0000 C CNN
F 2 "" H 8000 4640 60  0000 C CNN
F 3 "" H 8000 4640 60  0000 C CNN
	1    8000 4640
	0    -1   -1   0   
$EndComp
$Comp
L ZENER D3
U 1 1 53D2A90C
P 7690 4640
F 0 "D3" H 7690 4740 50  0000 C CNN
F 1 "3,3v" H 7690 4540 40  0000 C CNN
F 2 "" H 7690 4640 60  0000 C CNN
F 3 "" H 7690 4640 60  0000 C CNN
	1    7690 4640
	0    -1   -1   0   
$EndComp
$Comp
L GND #PWR016
U 1 1 53D2ABC8
P 7860 4910
F 0 "#PWR016" H 7860 4910 30  0001 C CNN
F 1 "GND" H 7860 4840 30  0001 C CNN
F 2 "" H 7860 4910 60  0000 C CNN
F 3 "" H 7860 4910 60  0000 C CNN
	1    7860 4910
	1    0    0    -1  
$EndComp
$Comp
L R R26
U 1 1 53D2D249
P 8800 4610
F 0 "R26" V 8880 4610 40  0000 C CNN
F 1 "2k2" V 8807 4611 40  0000 C CNN
F 2 "" V 8730 4610 30  0000 C CNN
F 3 "" H 8800 4610 30  0000 C CNN
	1    8800 4610
	0    1    1    0   
$EndComp
Text Label 9260 4610 0    21   ~ 0
VCC_5V
Text Label 9330 2110 2    21   ~ 0
SII
Text Label 9390 2460 2    21   ~ 0
SDI
Text Label 9390 2560 2    21   ~ 0
SDO
$Comp
L C C5
U 1 1 53D36880
P 15230 1040
F 0 "C5" H 15230 1140 40  0000 L CNN
F 1 "20pF" H 15236 955 40  0000 L CNN
F 2 "" H 15268 890 30  0000 C CNN
F 3 "" H 15230 1040 60  0000 C CNN
	1    15230 1040
	1    0    0    -1  
$EndComp
$Comp
L C C6
U 1 1 53D36886
P 15830 1040
F 0 "C6" H 15830 1140 40  0000 L CNN
F 1 "20pF" H 15836 955 40  0000 L CNN
F 2 "" H 15868 890 30  0000 C CNN
F 3 "" H 15830 1040 60  0000 C CNN
	1    15830 1040
	1    0    0    -1  
$EndComp
$Comp
L CRYSTAL X3
U 1 1 53D3688C
P 15530 760
F 0 "X3" H 15530 910 60  0000 C CNN
F 1 "12MHz" H 15530 610 60  0000 C CNN
F 2 "" H 15530 760 60  0000 C CNN
F 3 "" H 15530 760 60  0000 C CNN
	1    15530 760 
	1    0    0    -1  
$EndComp
$Comp
L GND #PWR017
U 1 1 53D36892
P 15530 1340
F 0 "#PWR017" H 15530 1340 30  0001 C CNN
F 1 "GND" H 15530 1270 30  0001 C CNN
F 2 "" H 15530 1340 60  0000 C CNN
F 3 "" H 15530 1340 60  0000 C CNN
	1    15530 1340
	1    0    0    -1  
$EndComp
Text Label 15230 660  0    21   ~ 0
T168_XTAL1
Text Label 15830 660  2    21   ~ 0
T168_XTAL2
Text Label 9170 2210 0    21   ~ 0
T168_XTAL1
Text Label 9170 2310 0    21   ~ 0
T168_XTAL2
Text Label 13510 810  2    21   ~ 0
HVSPVCC
Text Label 12900 1690 0    21   ~ 0
RESET
NoConn ~ 7200 2210
Text Label 13680 3890 0    21   ~ 0
VCC_5V
Text Label 7480 4250 0    21   ~ 0
USB1_D+
Text Label 7480 4370 0    21   ~ 0
USB1_D-
$Comp
L R R2
U 1 1 53D5B1FD
P 9260 1070
F 0 "R2" V 9340 1070 40  0000 C CNN
F 1 "10K" V 9267 1071 40  0000 C CNN
F 2 "" V 9190 1070 30  0000 C CNN
F 3 "" H 9260 1070 30  0000 C CNN
	1    9260 1070
	0    1    1    0   
$EndComp
$Comp
L R R1
U 1 1 53D5B392
P 9260 900
F 0 "R1" V 9340 900 40  0000 C CNN
F 1 "10K" V 9267 901 40  0000 C CNN
F 2 "" V 9190 900 30  0000 C CNN
F 3 "" H 9260 900 30  0000 C CNN
	1    9260 900 
	0    1    1    0   
$EndComp
Text Label 8920 900  2    21   ~ 0
T168_SCL
Text Label 8770 1070 0    21   ~ 0
T168_SDA
Text Label 9360 2860 0    21   ~ 0
T168_SDA
Text Label 9360 2960 0    21   ~ 0
T168_SCL
NoConn ~ 660  2810
NoConn ~ 660  2910
Text Label 12220 4850 0    21   ~ 0
VCC_5V
$Comp
L CONN_20X2 P5
U 1 1 53CEDD86
P 5450 6350
F 0 "P5" H 5450 7400 60  0000 C CNN
F 1 "CONN_20X2" V 5450 6350 50  0000 C CNN
F 2 "" H 5450 6350 60  0000 C CNN
F 3 "" H 5450 6350 60  0000 C CNN
	1    5450 6350
	1    0    0    1   
$EndComp
$Comp
L CONN_9X2 P4
U 1 1 53CEF04D
P 3160 5850
F 0 "P4" H 3160 6300 60  0000 C CNN
F 1 "CONN_9X2" V 3160 5850 50  0000 C CNN
F 2 "" H 3160 5850 60  0000 C CNN
F 3 "" H 3160 5850 60  0000 C CNN
	1    3160 5850
	1    0    0    1   
$EndComp
$Comp
L CONN_4 P2
U 1 1 53D12AD7
P 8350 670
F 0 "P2" V 8300 670 50  0000 C CNN
F 1 "I2C Display" V 8400 670 50  0000 C CNN
F 2 "" H 8350 670 60  0000 C CNN
F 3 "" H 8350 670 60  0000 C CNN
	1    8350 670 
	0    -1   -1   0   
$EndComp
Text Label 8200 1140 1    21   ~ 0
VCC_5V
Text Label 8300 1140 1    21   ~ 0
GND
Text Label 8400 1140 1    21   ~ 0
T168_SCL
Text Label 8500 1140 1    21   ~ 0
T168_SDA
Text Label 880  4160 0    21   ~ 0
PL2303_TXD2
Text Label 880  3750 0    21   ~ 0
PL2303_RXD1
Text Label 880  4240 0    21   ~ 0
PL2303_RXD2
$Comp
L ATMEGA168-A IC1
U 1 1 53CC505B
P 8100 2710
F 0 "IC1" H 7350 3960 40  0000 L BNN
F 1 "ATMEGA168-A" H 8550 1310 40  0000 L BNN
F 2 "TQFP32" H 8100 2710 30  0000 C CIN
F 3 "" H 8100 2710 60  0000 C CNN
	1    8100 2710
	1    0    0    -1  
$EndComp
Text Label 9390 3910 2    21   ~ 0
ENC_SW
Text Label 9100 3710 0    21   ~ 0
ENC_LEFT
Text Label 9100 3810 0    21   ~ 0
ENC_RIGHT
$Comp
L MODECOM_HUB-WAVE H1
U 1 1 53BD4CF8
P 1610 2310
F 0 "H1" H 1160 3360 60  0000 C CNN
F 1 "MODECOM_HUB-WAVE" H 1610 1260 60  0000 C CNN
F 2 "" H 1360 2160 60  0000 C CNN
F 3 "" H 1360 2160 60  0000 C CNN
	1    1610 2310
	1    0    0    -1  
$EndComp
Text Label 660  1910 0    21   ~ 0
VCC_5V
Text Label 660  2460 0    21   ~ 0
VCC_5V
Text Label 660  3010 0    21   ~ 0
VCC_5V
$Comp
L R R50
U 1 1 53D5456C
P 4010 6200
F 0 "R50" V 4010 6290 40  0000 C CNN
F 1 "100" V 4010 6120 40  0000 C CNN
F 2 "" V 3940 6200 30  0000 C CNN
F 3 "" H 4010 6200 30  0000 C CNN
	1    4010 6200
	0    -1   1    0   
$EndComp
$Comp
L R R47
U 1 1 53D54717
P 4010 6100
F 0 "R47" V 4010 6190 40  0000 C CNN
F 1 "100" V 4010 6020 40  0000 C CNN
F 2 "" V 3940 6100 30  0000 C CNN
F 3 "" H 4010 6100 30  0000 C CNN
	1    4010 6100
	0    -1   1    0   
$EndComp
$Comp
L R R29
U 1 1 53D18D52
P 4010 5500
F 0 "R29" V 4010 5590 40  0000 C CNN
F 1 "100" V 4010 5420 40  0000 C CNN
F 2 "" V 3940 5500 30  0000 C CNN
F 3 "" H 4010 5500 30  0000 C CNN
	1    4010 5500
	0    -1   1    0   
$EndComp
$Comp
L R R32
U 1 1 53D18D58
P 4010 5600
F 0 "R32" V 4010 5690 40  0000 C CNN
F 1 "100" V 4010 5520 40  0000 C CNN
F 2 "" V 3940 5600 30  0000 C CNN
F 3 "" H 4010 5600 30  0000 C CNN
	1    4010 5600
	0    -1   1    0   
$EndComp
$Comp
L R R35
U 1 1 53D18D5E
P 4010 5700
F 0 "R35" V 4010 5790 40  0000 C CNN
F 1 "100" V 4010 5620 40  0000 C CNN
F 2 "" V 3940 5700 30  0000 C CNN
F 3 "" H 4010 5700 30  0000 C CNN
	1    4010 5700
	0    -1   1    0   
$EndComp
$Comp
L R R38
U 1 1 53D18D64
P 4010 5800
F 0 "R38" V 4010 5890 40  0000 C CNN
F 1 "100" V 4010 5720 40  0000 C CNN
F 2 "" V 3940 5800 30  0000 C CNN
F 3 "" H 4010 5800 30  0000 C CNN
	1    4010 5800
	0    -1   1    0   
$EndComp
$Comp
L R R41
U 1 1 53D18D6A
P 4010 5900
F 0 "R41" V 4010 5990 40  0000 C CNN
F 1 "100" V 4010 5820 40  0000 C CNN
F 2 "" V 3940 5900 30  0000 C CNN
F 3 "" H 4010 5900 30  0000 C CNN
	1    4010 5900
	0    -1   1    0   
$EndComp
$Comp
L R R44
U 1 1 53D18D70
P 4010 6000
F 0 "R44" V 4010 6090 40  0000 C CNN
F 1 "100" V 4010 5920 40  0000 C CNN
F 2 "" V 3940 6000 30  0000 C CNN
F 3 "" H 4010 6000 30  0000 C CNN
	1    4010 6000
	0    -1   1    0   
$EndComp
$Comp
L R R58
U 1 1 53D39A05
P 1610 7070
F 0 "R58" V 1620 6980 40  0000 C CNN
F 1 "100K" V 1620 7140 40  0000 C CNN
F 2 "" V 1540 7070 30  0000 C CNN
F 3 "" H 1610 7070 30  0000 C CNN
	1    1610 7070
	0    1    -1   0   
$EndComp
$Comp
L R R57
U 1 1 53D39A0B
P 1610 6970
F 0 "R57" V 1620 6880 40  0000 C CNN
F 1 "100K" V 1620 7040 40  0000 C CNN
F 2 "" V 1540 6970 30  0000 C CNN
F 3 "" H 1610 6970 30  0000 C CNN
	1    1610 6970
	0    1    -1   0   
$EndComp
$Comp
L R R49
U 1 1 53D39A11
P 2310 6200
F 0 "R49" V 2310 6290 40  0000 C CNN
F 1 "100" V 2310 6120 40  0000 C CNN
F 2 "" V 2240 6200 30  0000 C CNN
F 3 "" H 2310 6200 30  0000 C CNN
	1    2310 6200
	0    -1   1    0   
$EndComp
$Comp
L R R46
U 1 1 53D39A17
P 2310 6100
F 0 "R46" V 2310 6190 40  0000 C CNN
F 1 "100" V 2310 6020 40  0000 C CNN
F 2 "" V 2240 6100 30  0000 C CNN
F 3 "" H 2310 6100 30  0000 C CNN
	1    2310 6100
	0    -1   1    0   
$EndComp
$Comp
L R R56
U 1 1 53D39A1D
P 1610 6870
F 0 "R56" V 1620 6780 40  0000 C CNN
F 1 "100K" V 1620 6940 40  0000 C CNN
F 2 "" V 1540 6870 30  0000 C CNN
F 3 "" H 1610 6870 30  0000 C CNN
	1    1610 6870
	0    1    -1   0   
$EndComp
$Comp
L R R55
U 1 1 53D39A23
P 1610 6770
F 0 "R55" V 1620 6680 40  0000 C CNN
F 1 "100K" V 1620 6840 40  0000 C CNN
F 2 "" V 1540 6770 30  0000 C CNN
F 3 "" H 1610 6770 30  0000 C CNN
	1    1610 6770
	0    1    -1   0   
$EndComp
$Comp
L R R54
U 1 1 53D39A29
P 1610 6670
F 0 "R54" V 1620 6580 40  0000 C CNN
F 1 "100K" V 1620 6740 40  0000 C CNN
F 2 "" V 1540 6670 30  0000 C CNN
F 3 "" H 1610 6670 30  0000 C CNN
	1    1610 6670
	0    1    -1   0   
$EndComp
$Comp
L R R53
U 1 1 53D39A2F
P 1610 6570
F 0 "R53" V 1620 6480 40  0000 C CNN
F 1 "100K" V 1620 6640 40  0000 C CNN
F 2 "" V 1540 6570 30  0000 C CNN
F 3 "" H 1610 6570 30  0000 C CNN
	1    1610 6570
	0    1    -1   0   
$EndComp
$Comp
L R R51
U 1 1 53D39A3B
P 1610 6370
F 0 "R51" V 1620 6280 40  0000 C CNN
F 1 "100K" V 1620 6440 40  0000 C CNN
F 2 "" V 1540 6370 30  0000 C CNN
F 3 "" H 1610 6370 30  0000 C CNN
	1    1610 6370
	0    1    -1   0   
$EndComp
$Comp
L R R28
U 1 1 53D39A41
P 2310 5500
F 0 "R28" V 2310 5590 40  0000 C CNN
F 1 "100" V 2310 5420 40  0000 C CNN
F 2 "" V 2240 5500 30  0000 C CNN
F 3 "" H 2310 5500 30  0000 C CNN
	1    2310 5500
	0    -1   1    0   
$EndComp
$Comp
L R R31
U 1 1 53D39A47
P 2310 5600
F 0 "R31" V 2310 5690 40  0000 C CNN
F 1 "100" V 2310 5520 40  0000 C CNN
F 2 "" V 2240 5600 30  0000 C CNN
F 3 "" H 2310 5600 30  0000 C CNN
	1    2310 5600
	0    -1   1    0   
$EndComp
$Comp
L R R34
U 1 1 53D39A4D
P 2310 5700
F 0 "R34" V 2310 5790 40  0000 C CNN
F 1 "100" V 2310 5620 40  0000 C CNN
F 2 "" V 2240 5700 30  0000 C CNN
F 3 "" H 2310 5700 30  0000 C CNN
	1    2310 5700
	0    -1   1    0   
$EndComp
$Comp
L R R37
U 1 1 53D39A53
P 2310 5800
F 0 "R37" V 2310 5890 40  0000 C CNN
F 1 "100" V 2310 5720 40  0000 C CNN
F 2 "" V 2240 5800 30  0000 C CNN
F 3 "" H 2310 5800 30  0000 C CNN
	1    2310 5800
	0    -1   1    0   
$EndComp
$Comp
L R R40
U 1 1 53D39A59
P 2310 5900
F 0 "R40" V 2310 5990 40  0000 C CNN
F 1 "100" V 2310 5820 40  0000 C CNN
F 2 "" V 2240 5900 30  0000 C CNN
F 3 "" H 2310 5900 30  0000 C CNN
	1    2310 5900
	0    -1   1    0   
$EndComp
$Comp
L R R43
U 1 1 53D39A5F
P 2310 6000
F 0 "R43" V 2310 6090 40  0000 C CNN
F 1 "100" V 2310 5920 40  0000 C CNN
F 2 "" V 2240 6000 30  0000 C CNN
F 3 "" H 2310 6000 30  0000 C CNN
	1    2310 6000
	0    -1   1    0   
$EndComp
Entry Wire Line
	3560 6100 3660 6200
Entry Wire Line
	3560 6200 3660 6300
Entry Wire Line
	3560 6000 3660 6100
Entry Wire Line
	3560 5900 3660 6000
Entry Wire Line
	3560 5800 3660 5900
Entry Wire Line
	3560 5700 3660 5800
Entry Wire Line
	3560 5600 3660 5700
Entry Wire Line
	3560 5500 3660 5600
Entry Wire Line
	3660 6100 3760 6000
Entry Wire Line
	3660 6000 3760 5900
Entry Wire Line
	3660 5900 3760 5800
Entry Wire Line
	3660 5800 3760 5700
Entry Wire Line
	3660 5700 3760 5600
Entry Wire Line
	3660 5600 3760 5500
Entry Wire Line
	3660 6200 3760 6100
Entry Wire Line
	3660 6300 3760 6200
Text Label 2560 5500 2    21   ~ 0
C_PD6
Text Label 3560 5500 2    21   ~ 0
C_PD7
Text Label 2560 5600 2    21   ~ 0
C_PD4
Text Label 2560 5700 2    21   ~ 0
C_PD2
Text Label 2560 5800 2    21   ~ 0
C_PD0
Text Label 3560 5600 2    21   ~ 0
C_PD5
Text Label 3560 5700 2    21   ~ 0
C_PD3
Text Label 3560 5800 2    21   ~ 0
C_PD1
Text Label 2560 5900 2    21   ~ 0
C_PB6
Text Label 2560 6000 2    21   ~ 0
C_PB4
Text Label 2560 6100 2    21   ~ 0
C_PB2
Text Label 2560 6200 2    21   ~ 0
C_PB0
Entry Wire Line
	1960 6000 2060 6100
Entry Wire Line
	1960 6100 2060 6200
Entry Wire Line
	1960 5900 2060 6000
Entry Wire Line
	1960 5800 2060 5900
Entry Wire Line
	1960 5700 2060 5800
Entry Wire Line
	1960 5600 2060 5700
Entry Wire Line
	1960 5500 2060 5600
Entry Wire Line
	1960 5400 2060 5500
Entry Wire Line
	4260 6100 4360 6200
Entry Wire Line
	4260 6200 4360 6300
Entry Wire Line
	4260 6000 4360 6100
Entry Wire Line
	4260 5900 4360 6000
Entry Wire Line
	4260 5800 4360 5900
Entry Wire Line
	4260 5700 4360 5800
Entry Wire Line
	4260 5600 4360 5700
Entry Wire Line
	4260 5500 4360 5600
Entry Wire Line
	1960 6470 1860 6570
Entry Wire Line
	1960 6570 1860 6670
Entry Wire Line
	1960 6670 1860 6770
Entry Wire Line
	1960 6770 1860 6870
Entry Wire Line
	1960 6870 1860 6970
Entry Wire Line
	1960 6970 1860 7070
Entry Wire Line
	1960 6370 1860 6470
Entry Wire Line
	1960 6270 1860 6370
$Comp
L R R39
U 1 1 53D13A70
P 1610 5900
F 0 "R39" V 1620 5810 40  0000 C CNN
F 1 "100K" V 1620 5970 40  0000 C CNN
F 2 "" V 1540 5900 30  0000 C CNN
F 3 "" H 1610 5900 30  0000 C CNN
	1    1610 5900
	0    1    -1   0   
$EndComp
$Comp
L R R36
U 1 1 53D13A76
P 1610 5800
F 0 "R36" V 1620 5710 40  0000 C CNN
F 1 "100K" V 1620 5870 40  0000 C CNN
F 2 "" V 1540 5800 30  0000 C CNN
F 3 "" H 1610 5800 30  0000 C CNN
	1    1610 5800
	0    1    -1   0   
$EndComp
$Comp
L R R33
U 1 1 53D13A7C
P 1610 5700
F 0 "R33" V 1620 5610 40  0000 C CNN
F 1 "100K" V 1620 5770 40  0000 C CNN
F 2 "" V 1540 5700 30  0000 C CNN
F 3 "" H 1610 5700 30  0000 C CNN
	1    1610 5700
	0    1    -1   0   
$EndComp
$Comp
L R R30
U 1 1 53D13A82
P 1610 5600
F 0 "R30" V 1620 5510 40  0000 C CNN
F 1 "100K" V 1620 5670 40  0000 C CNN
F 2 "" V 1540 5600 30  0000 C CNN
F 3 "" H 1610 5600 30  0000 C CNN
	1    1610 5600
	0    1    -1   0   
$EndComp
$Comp
L R R27
U 1 1 53D13A88
P 1610 5500
F 0 "R27" V 1620 5410 40  0000 C CNN
F 1 "100K" V 1620 5570 40  0000 C CNN
F 2 "" V 1540 5500 30  0000 C CNN
F 3 "" H 1610 5500 30  0000 C CNN
	1    1610 5500
	0    1    -1   0   
$EndComp
Entry Wire Line
	1960 5600 1860 5700
Entry Wire Line
	1960 5700 1860 5800
Entry Wire Line
	1960 5800 1860 5900
Entry Wire Line
	1960 5900 1860 6000
Entry Wire Line
	1960 6000 1860 6100
Entry Wire Line
	1960 6100 1860 6200
Entry Wire Line
	1960 5500 1860 5600
Entry Wire Line
	1960 5400 1860 5500
Text Label 4260 5500 2    21   ~ 0
I_PD7
Text Label 4260 5600 2    21   ~ 0
I_PD5
Text Label 4260 5700 2    21   ~ 0
I_PD3
Text Label 4260 5800 2    21   ~ 0
I_PD1
Text Label 3560 5900 2    21   ~ 0
C_PB7
Text Label 3560 6000 2    21   ~ 0
C_PB5
Text Label 3560 6100 2    21   ~ 0
C_PB3
Text Label 3560 6200 2    21   ~ 0
C_PB1
Text Label 4260 6200 2    21   ~ 0
I_PB1
Text Label 4260 6100 2    21   ~ 0
I_PB3
Text Label 4260 6000 2    21   ~ 0
I_PB5
Text Label 4260 5900 2    21   ~ 0
I_PB7
Entry Wire Line
	4360 6500 4460 6400
Entry Wire Line
	4360 6400 4460 6300
Entry Wire Line
	4360 6600 4460 6500
Entry Wire Line
	4360 6700 4460 6600
Entry Wire Line
	4360 6800 4460 6700
Entry Wire Line
	4360 6900 4460 6800
Entry Wire Line
	4360 7000 4460 6900
Entry Wire Line
	4360 7100 4460 7000
Text Label 4460 6400 0    21   ~ 0
I_PD7
Text Label 4460 6500 0    21   ~ 0
I_PD5
Text Label 4460 6600 0    21   ~ 0
I_PD3
Text Label 4460 6700 0    21   ~ 0
I_PD1
Text Label 4460 7100 0    21   ~ 0
I_PB1
Text Label 4460 7000 0    21   ~ 0
I_PB3
Text Label 4460 6900 0    21   ~ 0
I_PB5
Text Label 4460 6800 0    21   ~ 0
I_PB7
Entry Wire Line
	6440 6600 6540 6700
Entry Wire Line
	6440 6700 6540 6800
Entry Wire Line
	6440 6800 6540 6900
Entry Wire Line
	6440 6900 6540 7000
Entry Wire Line
	6440 7000 6540 7100
Entry Wire Line
	6440 7100 6540 7200
Entry Wire Line
	6440 6500 6540 6600
Entry Wire Line
	6440 6400 6540 6500
Text Label 2760 5500 0    21   ~ 0
C_PD6
Entry Wire Line
	2560 6100 2660 6200
Entry Wire Line
	2560 6200 2660 6300
Entry Wire Line
	2560 6000 2660 6100
Entry Wire Line
	2560 5900 2660 6000
Entry Wire Line
	2560 5800 2660 5900
Entry Wire Line
	2560 5700 2660 5800
Entry Wire Line
	2560 5600 2660 5700
Entry Wire Line
	2560 5500 2660 5600
Entry Wire Line
	2660 6100 2760 6000
Entry Wire Line
	2660 6000 2760 5900
Entry Wire Line
	2660 5900 2760 5800
Entry Wire Line
	2660 5800 2760 5700
Entry Wire Line
	2660 5700 2760 5600
Entry Wire Line
	2660 5600 2760 5500
Entry Wire Line
	2660 6200 2760 6100
Entry Wire Line
	2660 6300 2760 6200
Text Label 2760 5600 0    21   ~ 0
C_PD4
Text Label 2760 5700 0    21   ~ 0
C_PD2
Text Label 2760 5800 0    21   ~ 0
C_PD0
Text Label 2760 5900 0    21   ~ 0
C_PB6
Text Label 2760 6000 0    21   ~ 0
C_PB4
Text Label 2760 6100 0    21   ~ 0
C_PB2
Text Label 2760 6200 0    21   ~ 0
C_PB0
Text Label 3760 5500 0    21   ~ 0
C_PD7
Text Label 3760 5600 0    21   ~ 0
C_PD5
Text Label 3760 5700 0    21   ~ 0
C_PD3
Text Label 3760 5800 0    21   ~ 0
C_PD1
Text Label 3760 5900 0    21   ~ 0
C_PB7
Text Label 3760 6000 0    21   ~ 0
C_PB5
Text Label 3760 6100 0    21   ~ 0
C_PB3
Text Label 3760 6200 0    21   ~ 0
C_PB1
Text Label 6440 6400 2    21   ~ 0
I_PD6
Text Label 6440 6500 2    21   ~ 0
I_PD4
Text Label 6440 6600 2    21   ~ 0
I_PD2
Text Label 6440 6700 2    21   ~ 0
I_PD0
Text Label 6440 6800 2    21   ~ 0
I_PB6
Text Label 6440 6900 2    21   ~ 0
I_PB4
Text Label 6440 7000 2    21   ~ 0
I_PB2
Text Label 6440 7100 2    21   ~ 0
I_PB0
Text Label 2760 5400 0    21   ~ 0
GND
Text Label 3560 5400 2    21   ~ 0
GND
Text Label 2060 5500 0    21   ~ 0
I_PD6
Text Label 1860 5500 2    21   ~ 0
I_PD6
Text Label 2060 5600 0    21   ~ 0
I_PD4
Text Label 1860 5600 2    21   ~ 0
I_PD4
Text Label 2060 5700 0    21   ~ 0
I_PD2
Text Label 1860 5700 2    21   ~ 0
I_PD2
Text Label 2060 5800 0    21   ~ 0
I_PD0
Text Label 1860 5800 2    21   ~ 0
I_PD0
Text Label 2060 5900 0    21   ~ 0
I_PB6
Text Label 1860 5900 2    21   ~ 0
I_PB6
Text Label 2060 6000 0    21   ~ 0
I_PB4
Text Label 1860 6000 2    21   ~ 0
I_PB4
Text Label 2060 6100 0    21   ~ 0
I_PB2
Text Label 1860 6100 2    21   ~ 0
I_PB2
Text Label 2060 6200 0    21   ~ 0
I_PB0
Text Label 1860 6200 2    21   ~ 0
I_PB0
Text Label 1860 6370 2    21   ~ 0
I_PD7
Text Label 1860 6470 2    21   ~ 0
I_PD5
Text Label 1860 6570 2    21   ~ 0
I_PD3
Text Label 1860 6670 2    21   ~ 0
I_PD1
Text Label 1860 6770 2    21   ~ 0
I_PB7
Text Label 1860 6870 2    21   ~ 0
I_PB5
Text Label 1860 6970 2    21   ~ 0
I_PB3
Text Label 1860 7070 2    21   ~ 0
I_PB1
Text Label 2080 7610 2    21   ~ 0
C_PD6
Text Label 2560 7610 2    21   ~ 0
C_PD4
Text Label 3040 7610 2    21   ~ 0
C_PD2
Text Label 3520 7610 2    21   ~ 0
C_PD0
Text Label 4000 7610 2    21   ~ 0
C_PB6
Text Label 4480 7610 2    21   ~ 0
C_PB4
Text Label 4960 7610 2    21   ~ 0
C_PB2
Text Label 5440 7610 2    21   ~ 0
C_PB0
Text Label 2080 8330 2    21   ~ 0
C_PD7
Text Label 2560 8330 2    21   ~ 0
C_PD5
Text Label 3040 8330 2    21   ~ 0
C_PD3
Text Label 3520 8330 2    21   ~ 0
C_PD1
Text Label 4000 8330 2    21   ~ 0
C_PB7
Text Label 4480 8330 2    21   ~ 0
C_PB5
Text Label 4960 8330 2    21   ~ 0
C_PB3
Text Label 5440 8330 2    21   ~ 0
C_PB1
$Comp
L C C17
U 1 1 53D9D590
P 5970 8450
F 0 "C17" H 5970 8550 40  0000 L CNN
F 1 "10nF" H 5976 8365 40  0000 L CNN
F 2 "" H 6008 8300 30  0000 C CNN
F 3 "" H 5970 8450 60  0000 C CNN
	1    5970 8450
	1    0    0    -1  
$EndComp
$Comp
L C C18
U 1 1 53D9D6DB
P 6180 8450
F 0 "C18" H 6180 8550 40  0000 L CNN
F 1 "100nF" H 6186 8365 40  0000 L CNN
F 2 "" H 6218 8300 30  0000 C CNN
F 3 "" H 6180 8450 60  0000 C CNN
	1    6180 8450
	1    0    0    -1  
$EndComp
$Comp
L CAPAPOL C19
U 1 1 53D9D7C9
P 6390 8450
F 0 "C19" H 6440 8550 40  0000 L CNN
F 1 "10uF" H 6440 8350 40  0000 L CNN
F 2 "" H 6490 8300 30  0000 C CNN
F 3 "" H 6390 8450 300 0000 C CNN
	1    6390 8450
	1    0    0    -1  
$EndComp
$Comp
L GND #PWR018
U 1 1 53D9F8EB
P 5970 8740
F 0 "#PWR018" H 5970 8740 30  0001 C CNN
F 1 "GND" H 5970 8670 30  0001 C CNN
F 2 "" H 5970 8740 60  0000 C CNN
F 3 "" H 5970 8740 60  0000 C CNN
	1    5970 8740
	1    0    0    -1  
$EndComp
$Comp
L BAS40-04 D7
U 1 1 53DB1DDF
P 2080 7800
F 0 "D7" H 2080 7710 48  0000 C CNN
F 1 "BAS40-04" H 2090 7890 48  0000 C CNN
F 2 "" H 2080 7800 60  0000 C CNN
F 3 "" H 2080 7800 60  0000 C CNN
	1    2080 7800
	1    0    0    -1  
$EndComp
$Comp
L BAS40-04 D8
U 1 1 53DB2666
P 2560 7800
F 0 "D8" H 2560 7710 48  0000 C CNN
F 1 "BAS40-04" H 2570 7890 48  0000 C CNN
F 2 "" H 2560 7800 60  0000 C CNN
F 3 "" H 2560 7800 60  0000 C CNN
	1    2560 7800
	1    0    0    -1  
$EndComp
$Comp
L BAS40-04 D9
U 1 1 53DB2899
P 3040 7800
F 0 "D9" H 3040 7710 48  0000 C CNN
F 1 "BAS40-04" H 3050 7890 48  0000 C CNN
F 2 "" H 3040 7800 60  0000 C CNN
F 3 "" H 3040 7800 60  0000 C CNN
	1    3040 7800
	1    0    0    -1  
$EndComp
$Comp
L BAS40-04 D10
U 1 1 53DB3B80
P 3520 7800
F 0 "D10" H 3520 7710 48  0000 C CNN
F 1 "BAS40-04" H 3530 7890 48  0000 C CNN
F 2 "" H 3520 7800 60  0000 C CNN
F 3 "" H 3520 7800 60  0000 C CNN
	1    3520 7800
	1    0    0    -1  
$EndComp
$Comp
L BAS40-04 D11
U 1 1 53DB3B86
P 4000 7800
F 0 "D11" H 4000 7710 48  0000 C CNN
F 1 "BAS40-04" H 4010 7890 48  0000 C CNN
F 2 "" H 4000 7800 60  0000 C CNN
F 3 "" H 4000 7800 60  0000 C CNN
	1    4000 7800
	1    0    0    -1  
$EndComp
$Comp
L BAS40-04 D12
U 1 1 53DB410D
P 4480 7800
F 0 "D12" H 4480 7710 48  0000 C CNN
F 1 "BAS40-04" H 4490 7890 48  0000 C CNN
F 2 "" H 4480 7800 60  0000 C CNN
F 3 "" H 4480 7800 60  0000 C CNN
	1    4480 7800
	1    0    0    -1  
$EndComp
$Comp
L BAS40-04 D13
U 1 1 53DB4113
P 4960 7800
F 0 "D13" H 4960 7710 48  0000 C CNN
F 1 "BAS40-04" H 4970 7890 48  0000 C CNN
F 2 "" H 4960 7800 60  0000 C CNN
F 3 "" H 4960 7800 60  0000 C CNN
	1    4960 7800
	1    0    0    -1  
$EndComp
$Comp
L BAS40-04 D14
U 1 1 53DB4119
P 5440 7800
F 0 "D14" H 5440 7710 48  0000 C CNN
F 1 "BAS40-04" H 5450 7890 48  0000 C CNN
F 2 "" H 5440 7800 60  0000 C CNN
F 3 "" H 5440 7800 60  0000 C CNN
	1    5440 7800
	1    0    0    -1  
$EndComp
$Comp
L GND #PWR019
U 1 1 53DB9A85
P 1890 8020
F 0 "#PWR019" H 1890 8020 30  0001 C CNN
F 1 "GND" H 1890 7950 30  0001 C CNN
F 2 "" H 1890 8020 60  0000 C CNN
F 3 "" H 1890 8020 60  0000 C CNN
	1    1890 8020
	1    0    0    -1  
$EndComp
$Comp
L GND #PWR020
U 1 1 53DBAF59
P 2370 8020
F 0 "#PWR020" H 2370 8020 30  0001 C CNN
F 1 "GND" H 2370 7950 30  0001 C CNN
F 2 "" H 2370 8020 60  0000 C CNN
F 3 "" H 2370 8020 60  0000 C CNN
	1    2370 8020
	1    0    0    -1  
$EndComp
$Comp
L GND #PWR021
U 1 1 53DBB88E
P 2850 8020
F 0 "#PWR021" H 2850 8020 30  0001 C CNN
F 1 "GND" H 2850 7950 30  0001 C CNN
F 2 "" H 2850 8020 60  0000 C CNN
F 3 "" H 2850 8020 60  0000 C CNN
	1    2850 8020
	1    0    0    -1  
$EndComp
$Comp
L GND #PWR022
U 1 1 53DBB895
P 3330 8020
F 0 "#PWR022" H 3330 8020 30  0001 C CNN
F 1 "GND" H 3330 7950 30  0001 C CNN
F 2 "" H 3330 8020 60  0000 C CNN
F 3 "" H 3330 8020 60  0000 C CNN
	1    3330 8020
	1    0    0    -1  
$EndComp
$Comp
L GND #PWR023
U 1 1 53DBBB76
P 3810 8020
F 0 "#PWR023" H 3810 8020 30  0001 C CNN
F 1 "GND" H 3810 7950 30  0001 C CNN
F 2 "" H 3810 8020 60  0000 C CNN
F 3 "" H 3810 8020 60  0000 C CNN
	1    3810 8020
	1    0    0    -1  
$EndComp
$Comp
L GND #PWR024
U 1 1 53DBBB7D
P 4290 8020
F 0 "#PWR024" H 4290 8020 30  0001 C CNN
F 1 "GND" H 4290 7950 30  0001 C CNN
F 2 "" H 4290 8020 60  0000 C CNN
F 3 "" H 4290 8020 60  0000 C CNN
	1    4290 8020
	1    0    0    -1  
$EndComp
$Comp
L GND #PWR025
U 1 1 53DBBB84
P 4770 8020
F 0 "#PWR025" H 4770 8020 30  0001 C CNN
F 1 "GND" H 4770 7950 30  0001 C CNN
F 2 "" H 4770 8020 60  0000 C CNN
F 3 "" H 4770 8020 60  0000 C CNN
	1    4770 8020
	1    0    0    -1  
$EndComp
$Comp
L GND #PWR026
U 1 1 53DBBB8B
P 5250 8020
F 0 "#PWR026" H 5250 8020 30  0001 C CNN
F 1 "GND" H 5250 7950 30  0001 C CNN
F 2 "" H 5250 8020 60  0000 C CNN
F 3 "" H 5250 8020 60  0000 C CNN
	1    5250 8020
	1    0    0    -1  
$EndComp
Entry Wire Line
	2080 7610 2180 7510
Entry Wire Line
	2560 7610 2660 7510
Entry Wire Line
	3040 7610 3140 7510
Entry Wire Line
	3520 7610 3620 7510
Entry Wire Line
	4000 7610 4100 7510
Entry Wire Line
	4480 7610 4580 7510
Entry Wire Line
	4960 7610 5060 7510
Entry Wire Line
	5440 7610 5540 7510
$Comp
L BAS40-04 D15
U 1 1 53DCB4FA
P 2080 8520
F 0 "D15" H 2080 8430 48  0000 C CNN
F 1 "BAS40-04" H 2090 8610 48  0000 C CNN
F 2 "" H 2080 8520 60  0000 C CNN
F 3 "" H 2080 8520 60  0000 C CNN
	1    2080 8520
	1    0    0    -1  
$EndComp
$Comp
L BAS40-04 D16
U 1 1 53DCB500
P 2560 8520
F 0 "D16" H 2560 8430 48  0000 C CNN
F 1 "BAS40-04" H 2570 8610 48  0000 C CNN
F 2 "" H 2560 8520 60  0000 C CNN
F 3 "" H 2560 8520 60  0000 C CNN
	1    2560 8520
	1    0    0    -1  
$EndComp
$Comp
L BAS40-04 D17
U 1 1 53DCB506
P 3040 8520
F 0 "D17" H 3040 8430 48  0000 C CNN
F 1 "BAS40-04" H 3050 8610 48  0000 C CNN
F 2 "" H 3040 8520 60  0000 C CNN
F 3 "" H 3040 8520 60  0000 C CNN
	1    3040 8520
	1    0    0    -1  
$EndComp
$Comp
L BAS40-04 D18
U 1 1 53DCB50C
P 3520 8520
F 0 "D18" H 3520 8430 48  0000 C CNN
F 1 "BAS40-04" H 3530 8610 48  0000 C CNN
F 2 "" H 3520 8520 60  0000 C CNN
F 3 "" H 3520 8520 60  0000 C CNN
	1    3520 8520
	1    0    0    -1  
$EndComp
$Comp
L BAS40-04 D19
U 1 1 53DCB512
P 4000 8520
F 0 "D19" H 4000 8430 48  0000 C CNN
F 1 "BAS40-04" H 4010 8610 48  0000 C CNN
F 2 "" H 4000 8520 60  0000 C CNN
F 3 "" H 4000 8520 60  0000 C CNN
	1    4000 8520
	1    0    0    -1  
$EndComp
$Comp
L BAS40-04 D20
U 1 1 53DCB518
P 4480 8520
F 0 "D20" H 4480 8430 48  0000 C CNN
F 1 "BAS40-04" H 4490 8610 48  0000 C CNN
F 2 "" H 4480 8520 60  0000 C CNN
F 3 "" H 4480 8520 60  0000 C CNN
	1    4480 8520
	1    0    0    -1  
$EndComp
$Comp
L BAS40-04 D21
U 1 1 53DCB51E
P 4960 8520
F 0 "D21" H 4960 8430 48  0000 C CNN
F 1 "BAS40-04" H 4970 8610 48  0000 C CNN
F 2 "" H 4960 8520 60  0000 C CNN
F 3 "" H 4960 8520 60  0000 C CNN
	1    4960 8520
	1    0    0    -1  
$EndComp
$Comp
L BAS40-04 D22
U 1 1 53DCB524
P 5440 8520
F 0 "D22" H 5440 8430 48  0000 C CNN
F 1 "BAS40-04" H 5450 8610 48  0000 C CNN
F 2 "" H 5440 8520 60  0000 C CNN
F 3 "" H 5440 8520 60  0000 C CNN
	1    5440 8520
	1    0    0    -1  
$EndComp
$Comp
L GND #PWR027
U 1 1 53DCB52A
P 1890 8740
F 0 "#PWR027" H 1890 8740 30  0001 C CNN
F 1 "GND" H 1890 8670 30  0001 C CNN
F 2 "" H 1890 8740 60  0000 C CNN
F 3 "" H 1890 8740 60  0000 C CNN
	1    1890 8740
	1    0    0    -1  
$EndComp
$Comp
L GND #PWR028
U 1 1 53DCB531
P 2370 8740
F 0 "#PWR028" H 2370 8740 30  0001 C CNN
F 1 "GND" H 2370 8670 30  0001 C CNN
F 2 "" H 2370 8740 60  0000 C CNN
F 3 "" H 2370 8740 60  0000 C CNN
	1    2370 8740
	1    0    0    -1  
$EndComp
$Comp
L GND #PWR029
U 1 1 53DCB538
P 2850 8740
F 0 "#PWR029" H 2850 8740 30  0001 C CNN
F 1 "GND" H 2850 8670 30  0001 C CNN
F 2 "" H 2850 8740 60  0000 C CNN
F 3 "" H 2850 8740 60  0000 C CNN
	1    2850 8740
	1    0    0    -1  
$EndComp
$Comp
L GND #PWR030
U 1 1 53DCB53F
P 3330 8740
F 0 "#PWR030" H 3330 8740 30  0001 C CNN
F 1 "GND" H 3330 8670 30  0001 C CNN
F 2 "" H 3330 8740 60  0000 C CNN
F 3 "" H 3330 8740 60  0000 C CNN
	1    3330 8740
	1    0    0    -1  
$EndComp
$Comp
L GND #PWR031
U 1 1 53DCB546
P 3810 8740
F 0 "#PWR031" H 3810 8740 30  0001 C CNN
F 1 "GND" H 3810 8670 30  0001 C CNN
F 2 "" H 3810 8740 60  0000 C CNN
F 3 "" H 3810 8740 60  0000 C CNN
	1    3810 8740
	1    0    0    -1  
$EndComp
$Comp
L GND #PWR032
U 1 1 53DCB54D
P 4290 8740
F 0 "#PWR032" H 4290 8740 30  0001 C CNN
F 1 "GND" H 4290 8670 30  0001 C CNN
F 2 "" H 4290 8740 60  0000 C CNN
F 3 "" H 4290 8740 60  0000 C CNN
	1    4290 8740
	1    0    0    -1  
$EndComp
$Comp
L GND #PWR033
U 1 1 53DCB554
P 4770 8740
F 0 "#PWR033" H 4770 8740 30  0001 C CNN
F 1 "GND" H 4770 8670 30  0001 C CNN
F 2 "" H 4770 8740 60  0000 C CNN
F 3 "" H 4770 8740 60  0000 C CNN
	1    4770 8740
	1    0    0    -1  
$EndComp
$Comp
L GND #PWR034
U 1 1 53DCB55B
P 5250 8740
F 0 "#PWR034" H 5250 8740 30  0001 C CNN
F 1 "GND" H 5250 8670 30  0001 C CNN
F 2 "" H 5250 8740 60  0000 C CNN
F 3 "" H 5250 8740 60  0000 C CNN
	1    5250 8740
	1    0    0    -1  
$EndComp
Entry Wire Line
	2080 8330 2180 8230
Entry Wire Line
	2560 8330 2660 8230
Entry Wire Line
	3040 8330 3140 8230
Entry Wire Line
	3520 8330 3620 8230
Entry Wire Line
	4000 8330 4100 8230
Entry Wire Line
	4480 8330 4580 8230
Entry Wire Line
	4960 8330 5060 8230
Entry Wire Line
	5440 8330 5540 8230
$Comp
L ZENER D25
U 1 1 53D22938
P 6680 8450
F 0 "D25" H 6680 8550 50  0000 C CNN
F 1 "3,3v" H 6680 8350 40  0000 C CNN
F 2 "" H 6680 8450 60  0000 C CNN
F 3 "" H 6680 8450 60  0000 C CNN
	1    6680 8450
	0    -1   -1   0   
$EndComp
$Comp
L R R59
U 1 1 53D22B09
P 7050 8250
F 0 "R59" V 7130 8250 40  0000 C CNN
F 1 "10" V 7057 8251 40  0000 C CNN
F 2 "" V 6980 8250 30  0000 C CNN
F 3 "" H 7050 8250 30  0000 C CNN
	1    7050 8250
	0    1    1    0   
$EndComp
$Comp
L DIODESCH D24
U 1 1 53D23F59
P 7300 7880
F 0 "D24" H 7300 7980 40  0000 C CNN
F 1 "DIODESCH" H 7300 7780 40  0000 C CNN
F 2 "" H 7300 7880 60  0000 C CNN
F 3 "" H 7300 7880 60  0000 C CNN
	1    7300 7880
	0    1    1    0   
$EndComp
Text Label 7300 7680 3    21   ~ 0
VCC_5V
Text Label 2460 3520 2    21   ~ 0
GND
Text Label 2460 4110 2    21   ~ 0
USB5_D+
Text Label 2460 4210 2    21   ~ 0
USB5_D-
Text Label 2460 1510 2    21   ~ 0
USB7_D+
Text Label 2460 4310 2    21   ~ 0
VCC_5V
Text Label 4460 7300 2    21   ~ 0
PL2303_TXD2
Text Label 6440 7300 0    21   ~ 0
PL2303_RXD2
Text Label 4460 5800 0    21   ~ 0
T45_SCL
Text Label 6440 5800 0    21   ~ 0
T45_SDA
Text Label 4460 6300 0    21   ~ 0
GND
Text Label 4460 6200 0    21   ~ 0
PULL_23
Text Label 4460 6100 0    21   ~ 0
PULL_UP_5V
Text Label 6440 6100 2    21   ~ 0
PULL_UP_5V
Text Label 6440 6200 2    21   ~ 0
PULL_24
Text Label 6440 6300 2    21   ~ 0
GND
Text Label 6440 5500 0    21   ~ 0
RESET
Text Label 4460 5500 0    21   ~ 0
SCI
Text Label 6440 5400 0    21   ~ 0
VCC_5V
Text Label 4460 5700 0    21   ~ 0
VCC_3.3V
Text Label 6440 5900 0    21   ~ 0
PL2303_RXD1
Text Label 6440 6000 0    21   ~ 0
PL2303_TXD1
Text Label 6440 5700 0    21   ~ 0
SDO
Text Label 4460 5600 0    21   ~ 0
SDI
Text Label 6440 5600 0    21   ~ 0
SII
$Comp
L GND #PWR035
U 1 1 53D8A8AF
P 4730 10540
F 0 "#PWR035" H 4730 10540 30  0001 C CNN
F 1 "GND" H 4730 10470 30  0001 C CNN
F 2 "" H 4730 10540 60  0000 C CNN
F 3 "" H 4730 10540 60  0000 C CNN
	1    4730 10540
	1    0    0    -1  
$EndComp
$Comp
L GND #PWR036
U 1 1 53D8ABDB
P 5230 10540
F 0 "#PWR036" H 5230 10540 30  0001 C CNN
F 1 "GND" H 5230 10470 30  0001 C CNN
F 2 "" H 5230 10540 60  0000 C CNN
F 3 "" H 5230 10540 60  0000 C CNN
	1    5230 10540
	1    0    0    -1  
$EndComp
$Comp
L 74LS126 U3
U 4 1 53CF3E4D
P 11740 5000
F 0 "U3" H 11840 5200 60  0000 C CNN
F 1 "74HC126N" H 11490 4750 60  0000 C CNN
F 2 "" H 11740 5000 60  0000 C CNN
F 3 "" H 11740 5000 60  0000 C CNN
	4    11740 5000
	-1   0    0    -1  
$EndComp
$Comp
L BARREL_JACK CON1
U 1 1 53D9F064
P 1210 10340
F 0 "CON1" H 1210 10590 60  0000 C CNN
F 1 "BARREL_JACK" H 1210 10140 60  0000 C CNN
F 2 "" H 1210 10340 60  0000 C CNN
F 3 "" H 1210 10340 60  0000 C CNN
	1    1210 10340
	1    0    0    -1  
$EndComp
$Comp
L GND #PWR037
U 1 1 53D9F4C7
P 1690 10610
F 0 "#PWR037" H 1690 10610 30  0001 C CNN
F 1 "GND" H 1690 10540 30  0001 C CNN
F 2 "" H 1690 10610 60  0000 C CNN
F 3 "" H 1690 10610 60  0000 C CNN
	1    1690 10610
	1    0    0    -1  
$EndComp
Text Label 1690 10240 2    21   ~ 0
VCC_5V
$Comp
L C C20
U 1 1 53DA0B5D
P 3570 9430
F 0 "C20" H 3570 9530 40  0000 L CNN
F 1 "100nF" H 3576 9345 40  0000 L CNN
F 2 "" H 3608 9280 30  0000 C CNN
F 3 "" H 3570 9430 60  0000 C CNN
	1    3570 9430
	1    0    0    -1  
$EndComp
$Comp
L CAPAPOL C21
U 1 1 53DA0CC4
P 3790 9430
F 0 "C21" H 3840 9530 40  0000 L CNN
F 1 "10uF" H 3840 9330 40  0000 L CNN
F 2 "" H 3890 9280 30  0000 C CNN
F 3 "" H 3790 9430 300 0000 C CNN
	1    3790 9430
	1    0    0    -1  
$EndComp
$Comp
L NCP1117ST33T3G U5
U 1 1 53D3D7CB
P 2560 10290
F 0 "U5" H 2560 10540 40  0000 C CNN
F 1 "NCP1117ST33T3G" H 2560 10490 40  0000 C CNN
F 2 "" H 2560 10290 60  0000 C CNN
F 3 "" H 2560 10290 60  0000 C CNN
	1    2560 10290
	1    0    0    -1  
$EndComp
$Comp
L C C22
U 1 1 53D3F487
P 4060 9430
F 0 "C22" H 4060 9530 40  0000 L CNN
F 1 "100nF" H 4066 9345 40  0000 L CNN
F 2 "" H 4098 9280 30  0000 C CNN
F 3 "" H 4060 9430 60  0000 C CNN
	1    4060 9430
	1    0    0    -1  
$EndComp
$Comp
L C C23
U 1 1 53D41762
P 3200 10340
F 0 "C23" H 3200 10440 40  0000 L CNN
F 1 "10nF" H 3206 10255 40  0000 L CNN
F 2 "" H 3238 10190 30  0000 C CNN
F 3 "" H 3200 10340 60  0000 C CNN
	1    3200 10340
	1    0    0    -1  
$EndComp
$Comp
L C C24
U 1 1 53D429A5
P 3410 10340
F 0 "C24" H 3410 10440 40  0000 L CNN
F 1 "100nF" H 3416 10255 40  0000 L CNN
F 2 "" H 3448 10190 30  0000 C CNN
F 3 "" H 3410 10340 60  0000 C CNN
	1    3410 10340
	1    0    0    -1  
$EndComp
$Comp
L CAPAPOL C25
U 1 1 53D42AAF
P 3650 10340
F 0 "C25" H 3700 10440 40  0000 L CNN
F 1 "10uF" H 3700 10240 40  0000 L CNN
F 2 "" H 3750 10190 30  0000 C CNN
F 3 "" H 3650 10340 300 0000 C CNN
	1    3650 10340
	1    0    0    -1  
$EndComp
$Comp
L 24C16 U4
U 1 1 53D45CB9
P 4830 1120
F 0 "U4" H 4980 1470 60  0000 C CNN
F 1 "24C16" H 5030 770 60  0000 C CNN
F 2 "" H 4830 1120 60  0000 C CNN
F 3 "" H 4830 1120 60  0000 C CNN
	1    4830 1120
	1    0    0    -1  
$EndComp
Text Label 5760 1220 2    21   ~ 0
T168_SCL
Text Label 5610 1320 0    21   ~ 0
T168_SDA
$Comp
L GND #PWR038
U 1 1 53D492BB
P 4830 1690
F 0 "#PWR038" H 4830 1690 30  0001 C CNN
F 1 "GND" H 4830 1620 30  0001 C CNN
F 2 "" H 4830 1690 60  0000 C CNN
F 3 "" H 4830 1690 60  0000 C CNN
	1    4830 1690
	1    0    0    -1  
$EndComp
$Comp
L R R71
U 1 1 53D4E34A
P 4370 620
F 0 "R71" V 4450 620 40  0000 C CNN
F 1 "0" V 4377 621 40  0000 C CNN
F 2 "" V 4300 620 30  0000 C CNN
F 3 "" H 4370 620 30  0000 C CNN
	1    4370 620 
	0    1    1    0   
$EndComp
$Comp
L R R72
U 1 1 53D4E6A1
P 3980 870
F 0 "R72" V 4060 870 40  0000 C CNN
F 1 "0" V 3987 871 40  0000 C CNN
F 2 "" V 3910 870 30  0000 C CNN
F 3 "" H 3980 870 30  0000 C CNN
	1    3980 870 
	1    0    0    -1  
$EndComp
$Comp
L CONN_1 P1
U 1 1 53D3EA62
P 10750 5000
F 0 "P1" H 10910 5060 40  0000 L CNN
F 1 "CONN_1" H 10750 5055 30  0001 C CNN
F 2 "" H 10750 5000 60  0000 C CNN
F 3 "" H 10750 5000 60  0000 C CNN
	1    10750 5000
	1    0    0    -1  
$EndComp
$Comp
L CONN_1 P6
U 1 1 53D3EC55
P 10950 5000
F 0 "P6" H 11100 4940 40  0000 L CNN
F 1 "CONN_1" H 10950 5055 30  0001 C CNN
F 2 "" H 10950 5000 60  0000 C CNN
F 3 "" H 10950 5000 60  0000 C CNN
	1    10950 5000
	-1   0    0    1   
$EndComp
$Comp
L CONN_1 P7
U 1 1 53D41504
P 10520 4220
F 0 "P7" H 10680 4280 40  0000 L CNN
F 1 "CONN_1" H 10520 4275 30  0001 C CNN
F 2 "" H 10520 4220 60  0000 C CNN
F 3 "" H 10520 4220 60  0000 C CNN
	1    10520 4220
	1    0    0    -1  
$EndComp
$Comp
L CONN_1 P8
U 1 1 53D4150A
P 10720 4220
F 0 "P8" H 10870 4160 40  0000 L CNN
F 1 "CONN_1" H 10720 4275 30  0001 C CNN
F 2 "" H 10720 4220 60  0000 C CNN
F 3 "" H 10720 4220 60  0000 C CNN
	1    10720 4220
	-1   0    0    1   
$EndComp
$Comp
L CONN_1 P11
U 1 1 53D44A87
P 4880 10450
F 0 "P11" H 5040 10510 40  0000 L CNN
F 1 "CONN_1" H 4880 10505 30  0001 C CNN
F 2 "" H 4880 10450 60  0000 C CNN
F 3 "" H 4880 10450 60  0000 C CNN
	1    4880 10450
	1    0    0    -1  
$EndComp
$Comp
L CONN_1 P12
U 1 1 53D44A8D
P 5080 10450
F 0 "P12" H 5230 10390 40  0000 L CNN
F 1 "CONN_1" H 5080 10505 30  0001 C CNN
F 2 "" H 5080 10450 60  0000 C CNN
F 3 "" H 5080 10450 60  0000 C CNN
	1    5080 10450
	-1   0    0    1   
$EndComp
$Comp
L C C26
U 1 1 53D49314
P 5690 750
F 0 "C26" H 5690 850 40  0000 L CNN
F 1 "100nF" H 5696 665 40  0000 L CNN
F 2 "" H 5728 600 30  0000 C CNN
F 3 "" H 5690 750 60  0000 C CNN
	1    5690 750 
	1    0    0    -1  
$EndComp
$Comp
L GND #PWR039
U 1 1 53D497A5
P 5690 1000
F 0 "#PWR039" H 5690 1000 30  0001 C CNN
F 1 "GND" H 5690 930 30  0001 C CNN
F 2 "" H 5690 1000 60  0000 C CNN
F 3 "" H 5690 1000 60  0000 C CNN
	1    5690 1000
	1    0    0    -1  
$EndComp
$Comp
L CONN_1 P13
U 1 1 53D54452
P 10620 1610
F 0 "P13" H 10780 1670 40  0000 L CNN
F 1 "CONN_1" H 10620 1665 30  0001 C CNN
F 2 "" H 10620 1610 60  0000 C CNN
F 3 "" H 10620 1610 60  0000 C CNN
	1    10620 1610
	1    0    0    -1  
$EndComp
$Comp
L CONN_1 P14
U 1 1 53D54458
P 10820 1610
F 0 "P14" H 10970 1550 40  0000 L CNN
F 1 "CONN_1" H 10820 1665 30  0001 C CNN
F 2 "" H 10820 1610 60  0000 C CNN
F 3 "" H 10820 1610 60  0000 C CNN
	1    10820 1610
	-1   0    0    1   
$EndComp
$Comp
L CONN_1 P15
U 1 1 53D3BA14
P 14610 4190
F 0 "P15" H 14770 4250 40  0000 L CNN
F 1 "CONN_1" H 14610 4245 30  0001 C CNN
F 2 "" H 14610 4190 60  0000 C CNN
F 3 "" H 14610 4190 60  0000 C CNN
	1    14610 4190
	1    0    0    -1  
$EndComp
$Comp
L CONN_1 P16
U 1 1 53D3BA1A
P 14810 4190
F 0 "P16" H 14960 4130 40  0000 L CNN
F 1 "CONN_1" H 14810 4245 30  0001 C CNN
F 2 "" H 14810 4190 60  0000 C CNN
F 3 "" H 14810 4190 60  0000 C CNN
	1    14810 4190
	-1   0    0    1   
$EndComp
$Comp
L CONN_1 P17
U 1 1 53D3BBF9
P 14610 4290
F 0 "P17" H 14770 4350 40  0000 L CNN
F 1 "CONN_1" H 14610 4345 30  0001 C CNN
F 2 "" H 14610 4290 60  0000 C CNN
F 3 "" H 14610 4290 60  0000 C CNN
	1    14610 4290
	1    0    0    -1  
$EndComp
$Comp
L CONN_1 P18
U 1 1 53D3BBFF
P 14810 4290
F 0 "P18" H 14960 4230 40  0000 L CNN
F 1 "CONN_1" H 14810 4345 30  0001 C CNN
F 2 "" H 14810 4290 60  0000 C CNN
F 3 "" H 14810 4290 60  0000 C CNN
	1    14810 4290
	-1   0    0    1   
$EndComp
$Comp
L CONN_1 P19
U 1 1 53D4774B
P 10240 4550
F 0 "P19" H 10400 4610 40  0000 L CNN
F 1 "CONN_1" H 10240 4605 30  0001 C CNN
F 2 "" H 10240 4550 60  0000 C CNN
F 3 "" H 10240 4550 60  0000 C CNN
	1    10240 4550
	1    0    0    -1  
$EndComp
$Comp
L CONN_1 P20
U 1 1 53D47751
P 10440 4550
F 0 "P20" H 10590 4490 40  0000 L CNN
F 1 "CONN_1" H 10440 4605 30  0001 C CNN
F 2 "" H 10440 4550 60  0000 C CNN
F 3 "" H 10440 4550 60  0000 C CNN
	1    10440 4550
	-1   0    0    1   
$EndComp
$Comp
L CONN_1 P21
U 1 1 53D4D65F
P 10920 2730
F 0 "P21" H 11080 2790 40  0000 L CNN
F 1 "CONN_1" H 10920 2785 30  0001 C CNN
F 2 "" H 10920 2730 60  0000 C CNN
F 3 "" H 10920 2730 60  0000 C CNN
	1    10920 2730
	1    0    0    -1  
$EndComp
$Comp
L CONN_1 P22
U 1 1 53D4D665
P 11120 2730
F 0 "P22" H 11270 2670 40  0000 L CNN
F 1 "CONN_1" H 11120 2785 30  0001 C CNN
F 2 "" H 11120 2730 60  0000 C CNN
F 3 "" H 11120 2730 60  0000 C CNN
	1    11120 2730
	-1   0    0    1   
$EndComp
$Comp
L GND #PWR040
U 1 1 53D53679
P 4730 10760
F 0 "#PWR040" H 4730 10760 30  0001 C CNN
F 1 "GND" H 4730 10690 30  0001 C CNN
F 2 "" H 4730 10760 60  0000 C CNN
F 3 "" H 4730 10760 60  0000 C CNN
	1    4730 10760
	1    0    0    -1  
$EndComp
$Comp
L GND #PWR041
U 1 1 53D5367F
P 5230 10760
F 0 "#PWR041" H 5230 10760 30  0001 C CNN
F 1 "GND" H 5230 10690 30  0001 C CNN
F 2 "" H 5230 10760 60  0000 C CNN
F 3 "" H 5230 10760 60  0000 C CNN
	1    5230 10760
	1    0    0    -1  
$EndComp
$Comp
L CONN_1 P23
U 1 1 53D53685
P 4880 10670
F 0 "P23" H 5040 10730 40  0000 L CNN
F 1 "CONN_1" H 4880 10725 30  0001 C CNN
F 2 "" H 4880 10670 60  0000 C CNN
F 3 "" H 4880 10670 60  0000 C CNN
	1    4880 10670
	1    0    0    -1  
$EndComp
$Comp
L CONN_1 P24
U 1 1 53D5368B
P 5080 10670
F 0 "P24" H 5230 10610 40  0000 L CNN
F 1 "CONN_1" H 5080 10725 30  0001 C CNN
F 2 "" H 5080 10670 60  0000 C CNN
F 3 "" H 5080 10670 60  0000 C CNN
	1    5080 10670
	-1   0    0    1   
$EndComp
Text Label 4600 10190 0    21   ~ 0
VCC_5V
Text Label 5380 10190 2    21   ~ 0
VCC_5V
$Comp
L CONN_1 P25
U 1 1 53D547FC
P 4880 10190
F 0 "P25" H 5040 10250 40  0000 L CNN
F 1 "CONN_1" H 4880 10245 30  0001 C CNN
F 2 "" H 4880 10190 60  0000 C CNN
F 3 "" H 4880 10190 60  0000 C CNN
	1    4880 10190
	1    0    0    -1  
$EndComp
$Comp
L CONN_1 P26
U 1 1 53D54802
P 5080 10190
F 0 "P26" H 5230 10130 40  0000 L CNN
F 1 "CONN_1" H 5080 10245 30  0001 C CNN
F 2 "" H 5080 10190 60  0000 C CNN
F 3 "" H 5080 10190 60  0000 C CNN
	1    5080 10190
	-1   0    0    1   
$EndComp
NoConn ~ 2460 2210
Text GLabel 830  9180 1    21   Input ~ 0
GND
$Comp
L BAS40-04 D23
U 1 1 53D5F5EA
P 1120 7800
F 0 "D23" H 1120 7710 48  0000 C CNN
F 1 "BAS40-04" H 1130 7890 48  0000 C CNN
F 2 "" H 1120 7800 60  0000 C CNN
F 3 "" H 1120 7800 60  0000 C CNN
	1    1120 7800
	1    0    0    -1  
$EndComp
$Comp
L BAS40-04 D26
U 1 1 53D5FC85
P 1600 7800
F 0 "D26" H 1600 7710 48  0000 C CNN
F 1 "BAS40-04" H 1610 7890 48  0000 C CNN
F 2 "" H 1600 7800 60  0000 C CNN
F 3 "" H 1600 7800 60  0000 C CNN
	1    1600 7800
	1    0    0    -1  
$EndComp
$Comp
L BAS40-04 D27
U 1 1 53D5FDAF
P 1110 8520
F 0 "D27" H 1110 8430 48  0000 C CNN
F 1 "BAS40-04" H 1120 8610 48  0000 C CNN
F 2 "" H 1110 8520 60  0000 C CNN
F 3 "" H 1110 8520 60  0000 C CNN
	1    1110 8520
	1    0    0    -1  
$EndComp
$Comp
L GND #PWR042
U 1 1 53D61AFF
P 920 8740
F 0 "#PWR042" H 920 8740 30  0001 C CNN
F 1 "GND" H 920 8670 30  0001 C CNN
F 2 "" H 920 8740 60  0000 C CNN
F 3 "" H 920 8740 60  0000 C CNN
	1    920  8740
	1    0    0    -1  
$EndComp
$Comp
L GND #PWR043
U 1 1 53D62C87
P 1410 8740
F 0 "#PWR043" H 1410 8740 30  0001 C CNN
F 1 "GND" H 1410 8670 30  0001 C CNN
F 2 "" H 1410 8740 60  0000 C CNN
F 3 "" H 1410 8740 60  0000 C CNN
	1    1410 8740
	1    0    0    -1  
$EndComp
$Comp
L GND #PWR044
U 1 1 53D63C6F
P 1410 8020
F 0 "#PWR044" H 1410 8020 30  0001 C CNN
F 1 "GND" H 1410 7950 30  0001 C CNN
F 2 "" H 1410 8020 60  0000 C CNN
F 3 "" H 1410 8020 60  0000 C CNN
	1    1410 8020
	1    0    0    -1  
$EndComp
$Comp
L BAS40-04 D28
U 1 1 53D5FF28
P 1600 8520
F 0 "D28" H 1600 8430 48  0000 C CNN
F 1 "BAS40-04" H 1610 8610 48  0000 C CNN
F 2 "" H 1600 8520 60  0000 C CNN
F 3 "" H 1600 8520 60  0000 C CNN
	1    1600 8520
	1    0    0    -1  
$EndComp
Text Label 880  3670 0    21   ~ 0
PL2303_TXD1
Entry Wire Line
	780  3770 880  3670
Entry Wire Line
	780  3850 880  3750
Entry Wire Line
	780  4260 880  4160
Entry Wire Line
	780  4340 880  4240
Entry Wire Line
	1500 7510 1600 7610
Entry Wire Line
	1020 7510 1120 7610
Entry Wire Line
	1500 8230 1600 8330
Entry Wire Line
	1010 8230 1110 8330
$Comp
L GND #PWR045
U 1 1 53D61465
P 930 8020
F 0 "#PWR045" H 930 8020 30  0001 C CNN
F 1 "GND" H 930 7950 30  0001 C CNN
F 2 "" H 930 8020 60  0000 C CNN
F 3 "" H 930 8020 60  0000 C CNN
	1    930  8020
	1    0    0    -1  
$EndComp
Entry Wire Line
	2460 3520 2560 3620
Entry Wire Line
	2460 3620 2560 3720
Entry Wire Line
	2460 3720 2560 3820
Entry Wire Line
	2460 3820 2560 3920
Entry Wire Line
	2460 4110 2560 4210
Entry Wire Line
	2460 4210 2560 4310
Entry Wire Line
	2460 4310 2560 4410
Text Label 2460 3210 2    21   ~ 0
VCC_5V
Entry Wire Line
	2460 2410 2560 2510
Entry Wire Line
	2460 2510 2560 2610
Entry Wire Line
	2460 2610 2560 2710
Entry Wire Line
	2460 2710 2560 2810
NoConn ~ 2460 3010
NoConn ~ 2460 3110
Entry Wire Line
	2460 2010 2560 2110
Entry Wire Line
	2460 2110 2560 2210
Entry Wire Line
	2460 1910 2560 2010
Entry Wire Line
	2460 2910 2560 3010
Entry Wire Line
	2460 3210 2560 3310
Text Label 2460 1710 2    21   ~ 0
VCC_5V
Text Label 2460 1610 2    21   ~ 0
USB7_D-
Entry Wire Line
	1270 710  1370 810 
Entry Wire Line
	1270 810  1370 910 
Entry Wire Line
	1270 910  1370 1010
Entry Wire Line
	1270 1010 1370 1110
Entry Wire Line
	2460 1410 2560 1310
Entry Wire Line
	2460 1510 2560 1410
Entry Wire Line
	2460 1610 2560 1510
Entry Wire Line
	2460 1710 2560 1610
Text Label 1600 7610 0    21   ~ 0
PL2303_RXD1
Text Label 1120 7610 0    21   ~ 0
PL2303_TXD1
Text Label 1110 8330 0    21   ~ 0
PL2303_TXD2
Text Label 1600 8330 0    21   ~ 0
PL2303_RXD2
Text Label 670  2160 0    21   ~ 0
GND
Text Label 880  3830 0    21   ~ 0
GND
Entry Wire Line
	780  3930 880  3830
Text Label 4600 10050 0    21   ~ 0
VCC_5V
Text Label 5380 10050 2    21   ~ 0
VCC_5V
$Comp
L CONN_1 P27
U 1 1 53DB6DFE
P 4880 10050
F 0 "P27" H 5040 10110 40  0000 L CNN
F 1 "CONN_1" H 4880 10105 30  0001 C CNN
F 2 "" H 4880 10050 60  0000 C CNN
F 3 "" H 4880 10050 60  0000 C CNN
	1    4880 10050
	1    0    0    -1  
$EndComp
$Comp
L CONN_1 P28
U 1 1 53DB6E04
P 5080 10050
F 0 "P28" H 5230 9990 40  0000 L CNN
F 1 "CONN_1" H 5080 10105 30  0001 C CNN
F 2 "" H 5080 10050 60  0000 C CNN
F 3 "" H 5080 10050 60  0000 C CNN
	1    5080 10050
	-1   0    0    1   
$EndComp
$Comp
L GND #PWR046
U 1 1 53DB7A80
P 4730 10960
F 0 "#PWR046" H 4730 10960 30  0001 C CNN
F 1 "GND" H 4730 10890 30  0001 C CNN
F 2 "" H 4730 10960 60  0000 C CNN
F 3 "" H 4730 10960 60  0000 C CNN
	1    4730 10960
	1    0    0    -1  
$EndComp
$Comp
L CONN_1 P29
U 1 1 53DB7A8C
P 4880 10870
F 0 "P29" H 5040 10930 40  0000 L CNN
F 1 "CONN_1" H 4880 10925 30  0001 C CNN
F 2 "" H 4880 10870 60  0000 C CNN
F 3 "" H 4880 10870 60  0000 C CNN
	1    4880 10870
	1    0    0    -1  
$EndComp
$Comp
L R R48
U 1 1 53D13A5E
P 1610 6200
F 0 "R48" V 1620 6110 40  0000 C CNN
F 1 "100K" V 1620 6270 40  0000 C CNN
F 2 "" V 1540 6200 30  0000 C CNN
F 3 "" H 1610 6200 30  0000 C CNN
	1    1610 6200
	0    1    -1   0   
$EndComp
$Comp
L R R45
U 1 1 53D13A64
P 1610 6100
F 0 "R45" V 1620 6010 40  0000 C CNN
F 1 "100K" V 1620 6170 40  0000 C CNN
F 2 "" V 1540 6100 30  0000 C CNN
F 3 "" H 1610 6100 30  0000 C CNN
	1    1610 6100
	0    1    -1   0   
$EndComp
$Comp
L R R42
U 1 1 53D13A6A
P 1610 6000
F 0 "R42" V 1620 5910 40  0000 C CNN
F 1 "100K" V 1620 6070 40  0000 C CNN
F 2 "" V 1540 6000 30  0000 C CNN
F 3 "" H 1610 6000 30  0000 C CNN
	1    1610 6000
	0    1    -1   0   
$EndComp
$Comp
L R R52
U 1 1 53D39A35
P 1610 6470
F 0 "R52" V 1620 6380 40  0000 C CNN
F 1 "100K" V 1620 6540 40  0000 C CNN
F 2 "" V 1540 6470 30  0000 C CNN
F 3 "" H 1610 6470 30  0000 C CNN
	1    1610 6470
	0    1    -1   0   
$EndComp
Text Label 1230 5900 2    21   ~ 0
PULL_24
Text Label 1100 5500 0    21   ~ 0
PULL_23
Text Label 6180 8100 2    21   ~ 0
PULL_UP_5V
$Comp
L BSS138 Q4
U 1 1 53DE7FAF
P 3740 3840
F 0 "Q4" H 3740 3691 40  0000 R CNN
F 1 "BSS138" H 3740 3990 40  0000 R CNN
F 2 "SOT-23" H 3610 3942 29  0000 C CNN
F 3 "" H 3740 3840 60  0000 C CNN
	1    3740 3840
	0    -1   1    0   
$EndComp
$Comp
L R R61
U 1 1 53DE93C4
P 4060 3690
F 0 "R61" V 4140 3690 40  0000 C CNN
F 1 "10k" V 4067 3691 40  0000 C CNN
F 2 "" V 3990 3690 30  0000 C CNN
F 3 "" H 4060 3690 30  0000 C CNN
	1    4060 3690
	-1   0    0    -1  
$EndComp
$Comp
L R R60
U 1 1 53DE9E35
P 3440 3690
F 0 "R60" V 3520 3690 40  0000 C CNN
F 1 "10k" V 3447 3691 40  0000 C CNN
F 2 "" V 3370 3690 30  0000 C CNN
F 3 "" H 3440 3690 30  0000 C CNN
	1    3440 3690
	-1   0    0    -1  
$EndComp
Text Label 4830 550  0    21   ~ 0
VCC_5V
$Comp
L BSS138 Q2
U 1 1 53DFE5EB
P 6680 810
F 0 "Q2" H 6680 661 40  0000 R CNN
F 1 "BSS138" H 6680 960 40  0000 R CNN
F 2 "SOT-23" H 6550 912 29  0000 C CNN
F 3 "" H 6680 810 60  0000 C CNN
	1    6680 810 
	0    1    1    0   
$EndComp
$Comp
L CONN_1 P10
U 1 1 53E03B15
P 6260 910
F 0 "P10" H 6340 910 40  0000 L CNN
F 1 "CONN_1" H 6260 965 30  0001 C CNN
F 2 "" H 6260 910 60  0000 C CNN
F 3 "" H 6260 910 60  0000 C CNN
	1    6260 910 
	-1   0    0    1   
$EndComp
$Comp
L CONN_1 P9
U 1 1 53E03F24
P 6260 610
F 0 "P9" H 6340 610 40  0000 L CNN
F 1 "CONN_1" H 6260 665 30  0001 C CNN
F 2 "" H 6260 610 60  0000 C CNN
F 3 "" H 6260 610 60  0000 C CNN
	1    6260 610 
	-1   0    0    1   
$EndComp
Text Label 6410 610  0    21   ~ 0
CY_3.3V
Text Label 6410 910  0    21   ~ 0
CY_SCL
Text Label 6880 910  0    21   ~ 0
T168_SCL
$Comp
L BSS138 Q3
U 1 1 53E06676
P 6680 1250
F 0 "Q3" H 6680 1101 40  0000 R CNN
F 1 "BSS138" H 6680 1400 40  0000 R CNN
F 2 "SOT-23" H 6550 1352 29  0000 C CNN
F 3 "" H 6680 1250 60  0000 C CNN
	1    6680 1250
	0    1    1    0   
$EndComp
$Comp
L CONN_1 P31
U 1 1 53E0667C
P 6260 1350
F 0 "P31" H 6340 1350 40  0000 L CNN
F 1 "CONN_1" H 6260 1405 30  0001 C CNN
F 2 "" H 6260 1350 60  0000 C CNN
F 3 "" H 6260 1350 60  0000 C CNN
	1    6260 1350
	-1   0    0    1   
$EndComp
Text Label 6410 1050 0    21   ~ 0
CY_3.3V
Text Label 6410 1350 0    21   ~ 0
CY_SDA
Text Label 6880 1350 0    21   ~ 0
T168_SDA
Text Label 4000 10140 2    21   ~ 0
VCC_3.3V
Text Label 4180 3440 2    21   ~ 0
VCC_3.3V_U2
Text Label 3260 3440 0    21   ~ 0
PULL_UP_5V
Entry Wire Line
	3160 3540 3260 3440
Entry Wire Line
	3160 4040 3260 3940
Text Label 3260 3940 0    21   ~ 0
PL2303_TXD2
Entry Wire Line
	4180 3440 4280 3540
Entry Wire Line
	4180 3940 4280 4040
Text Label 4180 3940 2    21   ~ 0
PL2303_TXD2_3.3V
$Comp
L BSS138 Q7
U 1 1 53E49A77
P 3740 4520
F 0 "Q7" H 3740 4371 40  0000 R CNN
F 1 "BSS138" H 3740 4670 40  0000 R CNN
F 2 "SOT-23" H 3610 4622 29  0000 C CNN
F 3 "" H 3740 4520 60  0000 C CNN
	1    3740 4520
	0    -1   1    0   
$EndComp
$Comp
L R R69
U 1 1 53E49A7D
P 4060 4370
F 0 "R69" V 4140 4370 40  0000 C CNN
F 1 "10k" V 4067 4371 40  0000 C CNN
F 2 "" V 3990 4370 30  0000 C CNN
F 3 "" H 4060 4370 30  0000 C CNN
	1    4060 4370
	-1   0    0    -1  
$EndComp
$Comp
L R R68
U 1 1 53E49A83
P 3440 4370
F 0 "R68" V 3520 4370 40  0000 C CNN
F 1 "10k" V 3447 4371 40  0000 C CNN
F 2 "" V 3370 4370 30  0000 C CNN
F 3 "" H 3440 4370 30  0000 C CNN
	1    3440 4370
	-1   0    0    -1  
$EndComp
Text Label 4180 4120 2    21   ~ 0
VCC_3.3V_U2
Text Label 3260 4120 0    21   ~ 0
PULL_UP_5V
Entry Wire Line
	3160 4220 3260 4120
Entry Wire Line
	3160 4720 3260 4620
Text Label 3260 4620 0    21   ~ 0
PL2303_RXD2
Entry Wire Line
	4180 4120 4280 4220
Entry Wire Line
	4180 4620 4280 4720
Text Label 4180 4620 2    21   ~ 0
PL2303_RXD2_3.3V
$Comp
L BSS138 Q5
U 1 1 53E4A68B
P 3740 2490
F 0 "Q5" H 3740 2341 40  0000 R CNN
F 1 "BSS138" H 3740 2640 40  0000 R CNN
F 2 "SOT-23" H 3610 2592 29  0000 C CNN
F 3 "" H 3740 2490 60  0000 C CNN
	1    3740 2490
	0    -1   1    0   
$EndComp
$Comp
L R R65
U 1 1 53E4A691
P 4060 2340
F 0 "R65" V 4140 2340 40  0000 C CNN
F 1 "10k" V 4067 2341 40  0000 C CNN
F 2 "" V 3990 2340 30  0000 C CNN
F 3 "" H 4060 2340 30  0000 C CNN
	1    4060 2340
	-1   0    0    -1  
$EndComp
$Comp
L R R62
U 1 1 53E4A697
P 3440 2340
F 0 "R62" V 3520 2340 40  0000 C CNN
F 1 "10k" V 3447 2341 40  0000 C CNN
F 2 "" V 3370 2340 30  0000 C CNN
F 3 "" H 3440 2340 30  0000 C CNN
	1    3440 2340
	-1   0    0    -1  
$EndComp
Text Label 4180 2090 2    21   ~ 0
VCC_3.3V_U1
Text Label 3260 2090 0    21   ~ 0
PULL_UP_5V
Entry Wire Line
	3160 2190 3260 2090
Entry Wire Line
	3160 2690 3260 2590
Text Label 3260 2590 0    21   ~ 0
PL2303_TXD1
Entry Wire Line
	4180 2090 4280 2190
Entry Wire Line
	4180 2590 4280 2690
Text Label 4180 2590 2    21   ~ 0
PL2303_TXD1_3.3V
$Comp
L BSS138 Q6
U 1 1 53E4A6AD
P 3740 3160
F 0 "Q6" H 3740 3011 40  0000 R CNN
F 1 "BSS138" H 3740 3310 40  0000 R CNN
F 2 "SOT-23" H 3610 3262 29  0000 C CNN
F 3 "" H 3740 3160 60  0000 C CNN
	1    3740 3160
	0    -1   1    0   
$EndComp
$Comp
L R R67
U 1 1 53E4A6B3
P 4060 3010
F 0 "R67" V 4140 3010 40  0000 C CNN
F 1 "10k" V 4067 3011 40  0000 C CNN
F 2 "" V 3990 3010 30  0000 C CNN
F 3 "" H 4060 3010 30  0000 C CNN
	1    4060 3010
	-1   0    0    -1  
$EndComp
$Comp
L R R66
U 1 1 53E4A6B9
P 3440 3010
F 0 "R66" V 3520 3010 40  0000 C CNN
F 1 "10k" V 3447 3011 40  0000 C CNN
F 2 "" V 3370 3010 30  0000 C CNN
F 3 "" H 3440 3010 30  0000 C CNN
	1    3440 3010
	-1   0    0    -1  
$EndComp
Text Label 4180 2760 2    21   ~ 0
VCC_3.3V_U1
Text Label 3260 2760 0    21   ~ 0
PULL_UP_5V
Entry Wire Line
	3160 2860 3260 2760
Entry Wire Line
	3160 3360 3260 3260
Text Label 3260 3260 0    21   ~ 0
PL2303_RXD1
Entry Wire Line
	4180 2760 4280 2860
Entry Wire Line
	4180 3260 4280 3360
Text Label 4180 3260 2    21   ~ 0
PL2303_RXD1_3.3V
Text Label 6440 7200 0    21   ~ 0
PL2303_RXD2_3.3V
Text Label 4460 7200 2    21   ~ 0
PL2303_TXD2_3.3V
Entry Wire Line
	780  3610 880  3510
Text Label 880  3510 0    21   ~ 0
VCC_3.3V_U1
Entry Wire Line
	780  4100 880  4000
Text Label 880  4000 0    21   ~ 0
VCC_3.3V_U2
Entry Wire Line
	780  4420 880  4320
Text Label 880  4320 0    21   ~ 0
GND
Text Label 4460 6000 0    21   ~ 0
PL2303_TXD1_3.3V
Text Label 4460 5900 0    21   ~ 0
PL2303_RXD1_3.3V
$Comp
L CONN_1 P34
U 1 1 53EA76EF
P 8090 5780
F 0 "P34" H 8250 5840 40  0000 L CNN
F 1 "CONN_1" H 8090 5835 30  0001 C CNN
F 2 "" H 8090 5780 60  0000 C CNN
F 3 "" H 8090 5780 60  0000 C CNN
	1    8090 5780
	1    0    0    -1  
$EndComp
$Comp
L CONN_1 P35
U 1 1 53EA76F5
P 8290 5780
F 0 "P35" H 8440 5720 40  0000 L CNN
F 1 "CONN_1" H 8290 5835 30  0001 C CNN
F 2 "" H 8290 5780 60  0000 C CNN
F 3 "" H 8290 5780 60  0000 C CNN
	1    8290 5780
	-1   0    0    1   
$EndComp
$Comp
L CONN_1 P32
U 1 1 53EA76FD
P 8090 5600
F 0 "P32" H 8250 5660 40  0000 L CNN
F 1 "CONN_1" H 8090 5655 30  0001 C CNN
F 2 "" H 8090 5600 60  0000 C CNN
F 3 "" H 8090 5600 60  0000 C CNN
	1    8090 5600
	1    0    0    -1  
$EndComp
$Comp
L CONN_1 P33
U 1 1 53EA7703
P 8290 5600
F 0 "P33" H 8440 5540 40  0000 L CNN
F 1 "CONN_1" H 8290 5655 30  0001 C CNN
F 2 "" H 8290 5600 60  0000 C CNN
F 3 "" H 8290 5600 60  0000 C CNN
	1    8290 5600
	-1   0    0    1   
$EndComp
$Comp
L pl2303 U2
U 1 1 53D54CFD
P 1680 4160
F 0 "U2" H 1670 4070 60  0000 C CNN
F 1 "pl2303" H 1660 4160 60  0000 C CNN
F 2 "" H 84  4250 60  0000 C CNN
F 3 "" H 84  4250 60  0000 C CNN
	1    1680 4160
	-1   0    0    -1  
$EndComp
$Comp
L pl2303 U1
U 1 1 53D55086
P 1680 3670
F 0 "U1" H 1690 3570 60  0000 C CNN
F 1 "pl2303" H 1660 3670 60  0000 C CNN
F 2 "" H 84  3760 60  0000 C CNN
F 3 "" H 84  3760 60  0000 C CNN
	1    1680 3670
	-1   0    0    -1  
$EndComp
NoConn ~ 40   3030
$Comp
L CONN_1 P30
U 1 1 53D80788
P 4890 9900
F 0 "P30" H 5050 9960 40  0000 L CNN
F 1 "CONN_1" H 4890 9955 30  0001 C CNN
F 2 "" H 4890 9900 60  0000 C CNN
F 3 "" H 4890 9900 60  0000 C CNN
	1    4890 9900
	1    0    0    -1  
$EndComp
$Comp
L CONN_1 P36
U 1 1 53D8078E
P 5090 9900
F 0 "P36" H 5240 9840 40  0000 L CNN
F 1 "CONN_1" H 5090 9955 30  0001 C CNN
F 2 "" H 5090 9900 60  0000 C CNN
F 3 "" H 5090 9900 60  0000 C CNN
	1    5090 9900
	-1   0    0    1   
$EndComp
Text Label 5380 9900 2    21   ~ 0
PL2303_RXD1
$Comp
L R R70
U 1 1 53D85E9C
P 6190 5500
F 0 "R70" V 6190 5590 40  0000 C CNN
F 1 "100" V 6190 5420 40  0000 C CNN
F 2 "" V 6120 5500 30  0000 C CNN
F 3 "" H 6190 5500 30  0000 C CNN
	1    6190 5500
	0    -1   -1   0   
$EndComp
$Comp
L R R73
U 1 1 53D85FAD
P 6190 5600
F 0 "R73" V 6200 5510 40  0000 C CNN
F 1 "100" V 6200 5680 40  0000 C CNN
F 2 "" V 6120 5600 30  0000 C CNN
F 3 "" H 6190 5600 30  0000 C CNN
	1    6190 5600
	0    1    1    0   
$EndComp
$Comp
L R R74
U 1 1 53D860E1
P 6190 5700
F 0 "R74" V 6200 5610 40  0000 C CNN
F 1 "100" V 6200 5780 40  0000 C CNN
F 2 "" V 6120 5700 30  0000 C CNN
F 3 "" H 6190 5700 30  0000 C CNN
	1    6190 5700
	0    1    1    0   
$EndComp
$Comp
L R R64
U 1 1 53D8822A
P 4710 5600
F 0 "R64" V 4710 5510 40  0000 C CNN
F 1 "100" V 4710 5680 40  0000 C CNN
F 2 "" V 4640 5600 30  0000 C CNN
F 3 "" H 4710 5600 30  0000 C CNN
	1    4710 5600
	0    1    1    0   
$EndComp
$Comp
L R R63
U 1 1 53D883BC
P 4710 5500
F 0 "R63" V 4710 5410 40  0000 C CNN
F 1 "100" V 4710 5580 40  0000 C CNN
F 2 "" V 4640 5500 30  0000 C CNN
F 3 "" H 4710 5500 30  0000 C CNN
	1    4710 5500
	0    1    1    0   
$EndComp
Entry Wire Line
	2460 4010 2560 4110
Text Label 2460 4010 2    21   ~ 0
GND
$Comp
L R R81
U 1 1 53D715B4
P 4710 7200
F 0 "R81" V 4710 7290 40  0000 C CNN
F 1 "100" V 4710 7120 40  0000 C CNN
F 2 "" V 4640 7200 30  0000 C CNN
F 3 "" H 4710 7200 30  0000 C CNN
	1    4710 7200
	0    -1   -1   0   
$EndComp
$Comp
L R R83
U 1 1 53D71712
P 4710 7300
F 0 "R83" V 4710 7390 40  0000 C CNN
F 1 "100" V 4710 7220 40  0000 C CNN
F 2 "" V 4640 7300 30  0000 C CNN
F 3 "" H 4710 7300 30  0000 C CNN
	1    4710 7300
	0    -1   -1   0   
$EndComp
$Comp
L R R82
U 1 1 53D73423
P 6190 7200
F 0 "R82" V 6190 7290 40  0000 C CNN
F 1 "100" V 6190 7120 40  0000 C CNN
F 2 "" V 6120 7200 30  0000 C CNN
F 3 "" H 6190 7200 30  0000 C CNN
	1    6190 7200
	0    -1   -1   0   
$EndComp
$Comp
L R R84
U 1 1 53D73429
P 6190 7300
F 0 "R84" V 6190 7390 40  0000 C CNN
F 1 "100" V 6190 7220 40  0000 C CNN
F 2 "" V 6120 7300 30  0000 C CNN
F 3 "" H 6190 7300 30  0000 C CNN
	1    6190 7300
	0    -1   -1   0   
$EndComp
Entry Wire Line
	6440 7300 6540 7400
Entry Wire Line
	6440 7200 6540 7300
$Comp
L R R78
U 1 1 53D8942D
P 6190 5900
F 0 "R78" V 6190 5990 40  0000 C CNN
F 1 "100" V 6190 5820 40  0000 C CNN
F 2 "" V 6120 5900 30  0000 C CNN
F 3 "" H 6190 5900 30  0000 C CNN
	1    6190 5900
	0    -1   -1   0   
$EndComp
$Comp
L R R80
U 1 1 53D89433
P 6190 6000
F 0 "R80" V 6190 6090 40  0000 C CNN
F 1 "100" V 6190 5920 40  0000 C CNN
F 2 "" V 6120 6000 30  0000 C CNN
F 3 "" H 6190 6000 30  0000 C CNN
	1    6190 6000
	0    -1   -1   0   
$EndComp
$Comp
L R R77
U 1 1 53D89E83
P 4710 5900
F 0 "R77" V 4710 5990 40  0000 C CNN
F 1 "100" V 4710 5820 40  0000 C CNN
F 2 "" V 4640 5900 30  0000 C CNN
F 3 "" H 4710 5900 30  0000 C CNN
	1    4710 5900
	0    -1   -1   0   
$EndComp
$Comp
L R R79
U 1 1 53D89E89
P 4710 6000
F 0 "R79" V 4710 6090 40  0000 C CNN
F 1 "100" V 4710 5920 40  0000 C CNN
F 2 "" V 4640 6000 30  0000 C CNN
F 3 "" H 4710 6000 30  0000 C CNN
	1    4710 6000
	0    -1   -1   0   
$EndComp
Text Label 4460 5400 0    21   ~ 0
GND
Entry Wire Line
	4360 5600 4460 5500
Entry Wire Line
	4360 6000 4460 5900
Entry Wire Line
	4360 5700 4460 5600
Entry Wire Line
	4360 6100 4460 6000
Entry Wire Line
	6440 5500 6540 5600
Entry Wire Line
	6440 5600 6540 5700
Entry Wire Line
	6440 5700 6540 5800
Entry Wire Line
	6440 5900 6540 6000
Entry Wire Line
	6440 6000 6540 6100
$Comp
L R R75
U 1 1 53DAEA7F
P 4710 5800
F 0 "R75" V 4720 5710 40  0000 C CNN
F 1 "100" V 4710 5880 40  0000 C CNN
F 2 "" V 4640 5800 30  0000 C CNN
F 3 "" H 4710 5800 30  0000 C CNN
	1    4710 5800
	0    1    1    0   
$EndComp
Entry Wire Line
	4360 5900 4460 5800
$Comp
L R R76
U 1 1 53DB0C9F
P 6190 5800
F 0 "R76" V 6200 5710 40  0000 C CNN
F 1 "100" V 6200 5880 40  0000 C CNN
F 2 "" V 6120 5800 30  0000 C CNN
F 3 "" H 6190 5800 30  0000 C CNN
	1    6190 5800
	0    1    1    0   
$EndComp
Entry Wire Line
	6440 5800 6540 5900
Entry Wire Line
	4360 5800 4460 5700
Entry Wire Line
	4360 6200 4460 6100
Entry Wire Line
	4360 6300 4460 6200
Entry Wire Line
	4360 7200 4460 7100
Entry Wire Line
	4360 7300 4460 7200
Entry Wire Line
	4360 7400 4460 7300
Entry Wire Line
	3560 5400 3660 5500
Entry Wire Line
	4360 5500 4460 5400
Entry Wire Line
	6440 6300 6540 6400
Entry Wire Line
	6440 6200 6540 6300
Entry Wire Line
	6440 6100 6540 6200
Entry Wire Line
	6440 5400 6540 5500
Entry Wire Line
	2660 5500 2760 5400
Entry Wire Line
	1000 5600 1100 5500
Entry Wire Line
	1000 6000 1100 5900
$Comp
L GND #PWR047
U 1 1 53E54217
P 4730 11130
F 0 "#PWR047" H 4730 11130 30  0001 C CNN
F 1 "GND" H 4730 11060 30  0001 C CNN
F 2 "" H 4730 11130 60  0000 C CNN
F 3 "" H 4730 11130 60  0000 C CNN
	1    4730 11130
	1    0    0    -1  
$EndComp
$Comp
L GND #PWR048
U 1 1 53E5421D
P 5230 11130
F 0 "#PWR048" H 5230 11130 30  0001 C CNN
F 1 "GND" H 5230 11060 30  0001 C CNN
F 2 "" H 5230 11130 60  0000 C CNN
F 3 "" H 5230 11130 60  0000 C CNN
	1    5230 11130
	1    0    0    -1  
$EndComp
$Comp
L CONN_1 P37
U 1 1 53E54223
P 4880 11040
F 0 "P37" H 5040 11100 40  0000 L CNN
F 1 "CONN_1" H 4880 11095 30  0001 C CNN
F 2 "" H 4880 11040 60  0000 C CNN
F 3 "" H 4880 11040 60  0000 C CNN
	1    4880 11040
	1    0    0    -1  
$EndComp
$Comp
L CONN_1 P38
U 1 1 53E54229
P 5080 11040
F 0 "P38" H 5230 10980 40  0000 L CNN
F 1 "CONN_1" H 5080 11095 30  0001 C CNN
F 2 "" H 5080 11040 60  0000 C CNN
F 3 "" H 5080 11040 60  0000 C CNN
	1    5080 11040
	-1   0    0    1   
$EndComp
Text Label 10480 5710 2    21   ~ 0
VCC_5V
Text Label 10020 5710 0    21   ~ 0
VCC_3.3V
$Comp
L CONN_1 P39
U 1 1 53E662FB
P 10150 5560
F 0 "P39" H 10230 5560 40  0000 L CNN
F 1 "CONN_1" H 10150 5615 30  0001 C CNN
F 2 "" H 10150 5560 60  0000 C CNN
F 3 "" H 10150 5560 60  0000 C CNN
	1    10150 5560
	0    -1   -1   0   
$EndComp
$Comp
L CONN_1 P40
U 1 1 53E66775
P 10250 5560
F 0 "P40" H 10330 5560 40  0000 L CNN
F 1 "CONN_1" H 10250 5615 30  0001 C CNN
F 2 "" H 10250 5560 60  0000 C CNN
F 3 "" H 10250 5560 60  0000 C CNN
	1    10250 5560
	0    -1   -1   0   
$EndComp
$Comp
L CONN_1 P41
U 1 1 53E668A2
P 10350 5560
F 0 "P41" H 10430 5560 40  0000 L CNN
F 1 "CONN_1" H 10350 5615 30  0001 C CNN
F 2 "" H 10350 5560 60  0000 C CNN
F 3 "" H 10350 5560 60  0000 C CNN
	1    10350 5560
	0    -1   -1   0   
$EndComp
$Comp
L R R85
U 1 1 53E12265
P 10480 3300
F 0 "R85" V 10560 3300 40  0000 C CNN
F 1 "10k" V 10487 3301 40  0000 C CNN
F 2 "" V 10410 3300 30  0000 C CNN
F 3 "" H 10480 3300 30  0000 C CNN
	1    10480 3300
	0    1    1    0   
$EndComp
Text Label 10950 3300 2    21   ~ 0
VCC_5V
Text Label 8020 1140 1    21   ~ 0
ENC_LEFT
Text Label 7820 1140 1    21   ~ 0
ENC_RIGHT
$Comp
L CONN_2 K1
U 1 1 53E15174
P 7920 670
F 0 "K1" V 7870 670 40  0000 C CNN
F 1 "CONN_2" V 7970 670 40  0000 C CNN
F 2 "" H 7920 670 60  0000 C CNN
F 3 "" H 7920 670 60  0000 C CNN
	1    7920 670 
	0    -1   -1   0   
$EndComp
Wire Wire Line
	810  1610 660  1610
Wire Wire Line
	810  1710 660  1710
Wire Wire Line
	810  1810 660  1810
Wire Wire Line
	810  2260 660  2260
Wire Wire Line
	810  2360 660  2360
Wire Wire Line
	810  2710 660  2710
Wire Wire Line
	810  2810 660  2810
Wire Wire Line
	810  2910 660  2910
Wire Wire Line
	990  9230 990  9630
Wire Wire Line
	1170 9720 1170 9630
Connection ~ 1170 9630
Wire Notes Line
	14230 500  14230 1430
Connection ~ 1350 9230
Connection ~ 1580 9230
Connection ~ 1800 9230
Connection ~ 2020 9230
Connection ~ 1350 9630
Connection ~ 1580 9630
Connection ~ 1800 9630
Connection ~ 2020 9630
Connection ~ 2470 9230
Connection ~ 2690 9230
Connection ~ 2910 9230
Connection ~ 2470 9630
Connection ~ 2690 9630
Connection ~ 2910 9630
Connection ~ 2240 9230
Connection ~ 2240 9630
Wire Wire Line
	1230 9230 4060 9230
Wire Wire Line
	990  9630 4060 9630
Wire Wire Line
	9450 6140 9520 6140
Wire Wire Line
	9450 6340 9520 6340
Wire Wire Line
	8950 6140 8950 5940
Wire Wire Line
	12220 5940 12220 6140
Wire Wire Line
	8420 6340 8950 6340
Connection ~ 8860 6340
Wire Wire Line
	8860 6390 8860 6340
Wire Wire Line
	8590 6390 8590 6140
Wire Wire Line
	8420 6140 8950 6140
Connection ~ 8590 6140
Wire Wire Line
	8590 6790 8860 6790
Wire Wire Line
	8720 6790 8720 6870
Connection ~ 8720 6790
Wire Wire Line
	12220 6640 12220 6870
Wire Wire Line
	14370 660  14370 840 
Wire Wire Line
	14970 660  14970 840 
Wire Wire Line
	14370 1240 14970 1240
Wire Wire Line
	14670 1240 14670 1340
Connection ~ 14670 1240
Connection ~ 14370 760 
Connection ~ 14970 760 
Wire Wire Line
	9370 6440 9520 6440
Wire Wire Line
	9370 6540 9520 6540
Connection ~ 3130 9230
Connection ~ 3130 9630
Wire Wire Line
	9520 6240 8870 6240
Wire Wire Line
	8870 6240 8870 5780
Wire Wire Line
	7800 5780 8950 5780
Wire Wire Line
	9520 6640 9010 6640
Wire Wire Line
	9010 6640 9010 6270
Wire Wire Line
	9010 6270 8840 6270
Wire Wire Line
	8840 6270 8840 5600
Wire Wire Line
	7800 5600 8950 5600
Connection ~ 8840 5600
Connection ~ 8870 5780
Wire Wire Line
	12090 1630 12090 1770
Wire Wire Line
	12090 1770 12180 1770
Wire Wire Line
	12180 1770 12180 1940
Wire Wire Line
	12180 1940 12290 1940
Wire Wire Line
	12590 1070 12590 1740
Wire Wire Line
	11550 2340 11550 2400
Wire Wire Line
	11550 1940 11680 1940
Wire Wire Line
	10660 1070 12590 1070
Connection ~ 12590 1630
Connection ~ 11010 1070
Wire Wire Line
	9750 1270 9820 1270
Wire Wire Line
	10120 1070 10260 1070
Wire Wire Line
	10190 1000 10190 1070
Connection ~ 10190 1070
Connection ~ 11320 1070
Connection ~ 11770 1070
Wire Wire Line
	11320 1470 11770 1470
Wire Wire Line
	11560 1470 11560 1520
Connection ~ 11560 1470
Wire Wire Line
	10120 1470 10120 1530
Wire Wire Line
	12170 2730 12290 2730
Wire Wire Line
	12590 2140 12590 2530
Wire Wire Line
	12780 2140 12590 2140
Wire Wire Line
	12590 2930 12590 2980
Wire Wire Line
	11010 2220 11010 2160
Wire Wire Line
	11250 2140 11070 2140
Wire Wire Line
	9250 1270 9080 1270
Wire Wire Line
	13590 1940 13460 1940
Wire Wire Line
	13790 930  13790 1080
Wire Wire Line
	12780 1080 12910 1080
Wire Wire Line
	13590 1380 13590 1440
Wire Wire Line
	12780 1580 12780 2140
Wire Wire Line
	11700 3240 11700 3310
Wire Wire Line
	12600 3240 12600 3570
Wire Wire Line
	12600 3570 12450 3570
Wire Wire Line
	12450 3570 12450 4090
Wire Wire Line
	12450 4090 12570 4090
Wire Wire Line
	12070 2940 12150 2940
Wire Wire Line
	11740 4190 11740 4250
Connection ~ 11740 4220
Wire Wire Line
	12190 3890 12570 3890
Wire Wire Line
	12570 4190 12450 4190
Wire Wire Line
	12450 4190 12450 4550
Wire Wire Line
	12450 4550 12190 4550
Connection ~ 12590 2140
Wire Wire Line
	9680 3890 10740 3890
Wire Wire Line
	11160 4550 11290 4550
Wire Wire Line
	12190 5000 12190 5090
Wire Wire Line
	12570 4290 12570 5300
Wire Wire Line
	12570 5300 11740 5300
Wire Wire Line
	11240 3890 11290 3890
Wire Wire Line
	13520 3990 13520 4370
Wire Wire Line
	13520 3990 13370 3990
Wire Wire Line
	13370 4090 13520 4090
Connection ~ 13520 4090
Wire Wire Line
	13370 4190 13630 4190
Wire Wire Line
	13370 4290 13630 4290
Wire Wire Line
	14130 4190 15220 4190
Wire Wire Line
	14130 4290 15220 4290
Wire Wire Line
	12720 3660 12510 3660
Wire Wire Line
	12510 3660 12510 3990
Wire Wire Line
	12510 3990 12570 3990
Wire Wire Line
	13220 3660 13690 3660
Wire Wire Line
	6740 3400 6740 3360
Wire Wire Line
	9100 2660 9760 2660
Wire Wire Line
	9760 2660 9760 4550
Wire Wire Line
	9100 2760 9720 2760
Wire Wire Line
	9100 3210 9360 3210
Wire Wire Line
	9100 3310 9360 3310
Wire Wire Line
	6740 1710 7200 1710
Wire Wire Line
	7200 1610 7080 1610
Wire Wire Line
	7200 3910 7080 3910
Wire Wire Line
	7200 3810 7080 3810
Wire Wire Line
	7200 3710 7080 3710
Wire Wire Line
	7690 4840 8000 4840
Wire Wire Line
	7860 4910 7860 4840
Connection ~ 7860 4840
Wire Wire Line
	8000 4440 8050 4440
Wire Wire Line
	7480 4250 8050 4250
Wire Wire Line
	7690 4250 7690 4440
Wire Wire Line
	9100 3410 9510 3410
Wire Wire Line
	8550 4250 9510 4250
Wire Wire Line
	9100 3510 9410 3510
Wire Wire Line
	9410 3510 9410 4440
Wire Wire Line
	9410 4440 8550 4440
Wire Wire Line
	8550 4440 8550 4610
Wire Wire Line
	9050 4610 9260 4610
Wire Wire Line
	9100 2110 9330 2110
Wire Wire Line
	6970 3060 7200 3060
Wire Wire Line
	9100 1610 10270 1610
Wire Wire Line
	10270 1610 10270 2560
Wire Wire Line
	10270 2560 11930 2560
Wire Wire Line
	11930 2560 11930 2340
Wire Wire Line
	11930 2340 13460 2340
Wire Wire Line
	13460 2340 13460 1940
Wire Wire Line
	9080 1270 9080 1360
Wire Wire Line
	9080 1360 9180 1360
Wire Wire Line
	9180 1360 9180 1710
Wire Wire Line
	9180 1710 9100 1710
Wire Wire Line
	9100 1810 10730 1810
Wire Wire Line
	10730 1810 10730 2400
Wire Wire Line
	10730 2400 11070 2400
Wire Wire Line
	11070 2400 11070 2140
Wire Wire Line
	9100 1910 10120 1910
Wire Wire Line
	10120 1910 10120 3490
Wire Wire Line
	10120 3490 13400 3490
Wire Wire Line
	13400 3490 13400 3660
Connection ~ 13400 3660
Wire Wire Line
	9100 2010 9830 2010
Wire Wire Line
	9830 2010 9830 1970
Wire Wire Line
	9830 1970 10040 1970
Wire Wire Line
	10040 1970 10040 4220
Wire Wire Line
	15230 660  15230 840 
Wire Wire Line
	15830 660  15830 840 
Wire Wire Line
	15230 1240 15830 1240
Wire Wire Line
	15530 1240 15530 1340
Connection ~ 15530 1240
Connection ~ 15230 760 
Connection ~ 15830 760 
Wire Wire Line
	9100 2210 9390 2210
Wire Wire Line
	9100 2310 9390 2310
Wire Wire Line
	12780 1690 13020 1690
Connection ~ 12780 1690
Connection ~ 7690 4250
Wire Wire Line
	8000 4440 8000 4370
Wire Wire Line
	8000 4370 7480 4370
Wire Wire Line
	9100 3910 9560 3910
Wire Wire Line
	13370 3890 13680 3890
Wire Wire Line
	9100 3060 9600 3060
Wire Wire Line
	9600 3060 9600 3300
Wire Wire Line
	9100 3610 9680 3610
Wire Wire Line
	9680 3610 9680 3890
Wire Wire Line
	8770 900  9010 900 
Wire Wire Line
	9010 1070 8770 1070
Wire Wire Line
	9100 2860 9360 2860
Wire Wire Line
	9100 2960 9360 2960
Wire Wire Line
	9510 4250 9510 3410
Wire Wire Line
	11890 4850 12220 4850
Wire Notes Line
	14230 500  16030 500 
Wire Notes Line
	16030 500  16030 1430
Wire Notes Line
	16030 1430 14230 1430
Wire Wire Line
	8200 1020 8200 1140
Wire Wire Line
	8300 1020 8300 1140
Wire Wire Line
	8400 1020 8400 1140
Wire Wire Line
	8500 1020 8500 1140
Wire Wire Line
	9250 3710 9100 3710
Wire Wire Line
	9250 3810 9100 3810
Wire Wire Line
	810  1910 660  1910
Wire Wire Line
	810  2460 660  2460
Wire Wire Line
	810  3010 660  3010
Wire Bus Line
	1960 5320 1960 6970
Wire Bus Line
	1960 5320 6540 5320
Connection ~ 5970 8250
Connection ~ 6180 8250
Wire Wire Line
	5970 8650 6680 8650
Connection ~ 6180 8650
Wire Wire Line
	5970 8650 5970 8740
Wire Wire Line
	1890 7980 1890 8020
Wire Wire Line
	2370 7980 2370 8020
Wire Wire Line
	2850 7980 2850 8020
Wire Wire Line
	3330 7980 3330 8020
Wire Wire Line
	3810 7980 3810 8020
Wire Wire Line
	4290 7980 4290 8020
Wire Wire Line
	4770 7980 4770 8020
Wire Wire Line
	5250 7980 5250 8020
Wire Wire Line
	2270 8100 2270 7980
Wire Wire Line
	1310 8100 6180 8100
Wire Wire Line
	2750 8100 2750 7980
Wire Wire Line
	3230 8100 3230 7980
Connection ~ 2750 8100
Wire Wire Line
	3710 8100 3710 7980
Connection ~ 3230 8100
Wire Wire Line
	4190 8100 4190 7980
Connection ~ 3710 8100
Wire Wire Line
	4670 8100 4670 7980
Connection ~ 4190 8100
Wire Wire Line
	5150 8100 5150 7980
Connection ~ 4670 8100
Wire Wire Line
	5630 8100 5630 7980
Connection ~ 5150 8100
Wire Wire Line
	1890 8700 1890 8740
Wire Wire Line
	2370 8700 2370 8740
Wire Wire Line
	2850 8700 2850 8740
Wire Wire Line
	3330 8700 3330 8740
Wire Wire Line
	3810 8700 3810 8740
Wire Wire Line
	4290 8700 4290 8740
Wire Wire Line
	4770 8700 4770 8740
Wire Wire Line
	5250 8700 5250 8740
Wire Wire Line
	2270 8820 2270 8700
Wire Wire Line
	1300 8820 5810 8820
Wire Wire Line
	2750 8820 2750 8700
Wire Wire Line
	3230 8820 3230 8700
Connection ~ 2750 8820
Wire Wire Line
	3710 8820 3710 8700
Connection ~ 3230 8820
Wire Wire Line
	4190 8820 4190 8700
Connection ~ 3710 8820
Wire Wire Line
	4670 8820 4670 8700
Connection ~ 4190 8820
Wire Wire Line
	5150 8820 5150 8700
Connection ~ 4670 8820
Wire Wire Line
	5630 8820 5630 8700
Connection ~ 5150 8820
Wire Bus Line
	2180 7510 5720 7510
Wire Bus Line
	2180 8230 5720 8230
Wire Bus Line
	5720 8230 5720 7510
Wire Bus Line
	3660 6370 2660 6370
Wire Wire Line
	5970 8250 6800 8250
Wire Wire Line
	5970 8100 5970 8250
Connection ~ 5630 8100
Wire Wire Line
	5810 8820 5810 8100
Connection ~ 5810 8100
Connection ~ 5630 8820
Connection ~ 6390 8250
Connection ~ 6680 8250
Connection ~ 6390 8650
Wire Wire Line
	7300 8080 7300 8250
Wire Wire Line
	7300 7470 7300 7680
Wire Wire Line
	9760 4550 10660 4550
Wire Wire Line
	5850 6300 6440 6300
Wire Wire Line
	5850 6200 6440 6200
Wire Wire Line
	5850 6100 6440 6100
Wire Wire Line
	4460 6200 5050 6200
Wire Wire Line
	4460 6100 5050 6100
Wire Wire Line
	5850 5400 6440 5400
Wire Wire Line
	4460 5700 5050 5700
Wire Wire Line
	4730 10450 4730 10540
Wire Wire Line
	5230 10450 5230 10540
Wire Wire Line
	11290 5000 11100 5000
Wire Wire Line
	9720 2760 9720 5000
Wire Wire Line
	9720 5000 10600 5000
Wire Wire Line
	10040 4220 11740 4220
Wire Wire Line
	10080 2730 11670 2730
Wire Wire Line
	11570 2940 11570 2730
Connection ~ 11570 2730
Wire Wire Line
	1510 10440 1690 10440
Wire Wire Line
	1690 10440 1690 10610
Wire Wire Line
	1510 10240 2160 10240
Connection ~ 3350 9230
Connection ~ 3570 9230
Connection ~ 3350 9630
Connection ~ 3570 9630
Wire Wire Line
	1690 10540 3650 10540
Connection ~ 1690 10540
Connection ~ 3790 9230
Connection ~ 3790 9630
Connection ~ 2560 10540
Connection ~ 3200 10540
Connection ~ 3410 10540
Wire Wire Line
	2960 10240 2970 10240
Wire Wire Line
	2970 10240 2970 10140
Wire Wire Line
	2970 10140 3660 10140
Connection ~ 3200 10140
Connection ~ 3650 10140
Connection ~ 3410 10140
Wire Wire Line
	5530 1220 5850 1220
Wire Wire Line
	5530 1320 5850 1320
Wire Wire Line
	4130 1020 4130 1620
Wire Wire Line
	4130 1620 5580 1620
Connection ~ 4130 1120
Wire Wire Line
	4830 1620 4830 1690
Wire Wire Line
	5530 1020 5580 1020
Wire Wire Line
	5580 1020 5580 1620
Connection ~ 4830 1620
Wire Wire Line
	4130 1120 3980 1120
Wire Wire Line
	3980 620  4120 620 
Wire Wire Line
	4050 620  4050 690 
Wire Wire Line
	4050 690  4130 690 
Wire Wire Line
	4130 690  4130 920 
Connection ~ 4050 620 
Wire Wire Line
	4620 620  4830 620 
Wire Notes Line
	10750 5000 10950 5000
Wire Notes Line
	10520 4220 10720 4220
Wire Notes Line
	4880 10450 5080 10450
Wire Wire Line
	5690 950  5690 1000
Wire Wire Line
	5690 550  4830 550 
Wire Wire Line
	4830 550  4830 620 
Wire Wire Line
	11010 1570 11010 1660
Wire Notes Line
	14610 4190 14810 4190
Wire Notes Line
	14610 4290 14810 4290
Connection ~ 14960 4190
Connection ~ 14460 4190
Connection ~ 14960 4290
Connection ~ 14460 4290
Wire Wire Line
	10370 1610 11010 1610
Connection ~ 11010 1610
Connection ~ 10470 1610
Wire Notes Line
	10820 1610 10620 1610
Wire Notes Line
	10240 4550 10440 4550
Connection ~ 10590 4550
Connection ~ 10090 4550
Connection ~ 10870 4220
Connection ~ 10370 4220
Wire Notes Line
	10920 2730 11120 2730
Connection ~ 10770 2730
Wire Wire Line
	11570 2730 11270 2730
Connection ~ 11270 2730
Connection ~ 10970 1610
Wire Wire Line
	4730 10670 4730 10760
Wire Wire Line
	5230 10670 5230 10760
Wire Notes Line
	4880 10670 5080 10670
Wire Wire Line
	5230 10190 5380 10190
Wire Wire Line
	4730 10190 4600 10190
Wire Notes Line
	4880 10190 5080 10190
Wire Wire Line
	830  9180 830  9230
Wire Wire Line
	830  9230 990  9230
Wire Wire Line
	1790 8700 1790 8820
Wire Wire Line
	1790 8100 1790 7980
Connection ~ 2270 8100
Wire Wire Line
	1310 8100 1310 7980
Connection ~ 1790 8100
Connection ~ 2270 8820
Wire Wire Line
	1300 8820 1300 8700
Connection ~ 1790 8820
Wire Wire Line
	1410 7980 1410 8020
Wire Wire Line
	930  7980 930  8020
Wire Wire Line
	1410 8700 1410 8740
Wire Wire Line
	920  8700 920  8740
Wire Bus Line
	1370 810  1370 1110
Wire Bus Line
	1370 1110 2560 1110
Wire Bus Line
	2560 1110 2560 1610
Wire Wire Line
	810  2160 660  2160
Wire Wire Line
	5230 10050 5380 10050
Wire Wire Line
	4730 10050 4600 10050
Wire Notes Line
	4880 10050 5080 10050
Wire Wire Line
	4730 10870 4730 10960
Wire Wire Line
	1290 5800 1360 5800
Wire Wire Line
	1290 5500 1290 6670
Wire Wire Line
	1290 6370 1360 6370
Wire Wire Line
	1290 6670 1360 6670
Connection ~ 1290 6370
Wire Wire Line
	1360 6470 1290 6470
Connection ~ 1290 6470
Wire Wire Line
	1360 6570 1290 6570
Wire Wire Line
	1290 6570 1290 6560
Connection ~ 1290 6560
Connection ~ 1290 5800
Wire Wire Line
	1360 5600 1290 5600
Connection ~ 1290 5600
Wire Wire Line
	1360 5700 1290 5700
Connection ~ 1290 5700
Wire Wire Line
	1100 5900 1360 5900
Wire Wire Line
	1230 5900 1230 7070
Wire Wire Line
	1230 6770 1360 6770
Wire Wire Line
	1230 7070 1360 7070
Connection ~ 1230 6770
Wire Wire Line
	1360 6870 1230 6870
Connection ~ 1230 6870
Wire Wire Line
	1360 6970 1230 6970
Connection ~ 1230 6970
Wire Wire Line
	1360 6000 1230 6000
Connection ~ 1230 6000
Wire Wire Line
	1360 6100 1230 6100
Connection ~ 1230 6100
Wire Wire Line
	1360 6200 1230 6200
Wire Wire Line
	1230 6200 1230 6190
Connection ~ 1230 6190
Connection ~ 1230 5900
Connection ~ 5970 8100
Wire Wire Line
	3940 3940 4180 3940
Wire Wire Line
	3260 3940 3540 3940
Wire Wire Line
	6410 610  6630 610 
Wire Wire Line
	6410 910  6480 910 
Wire Wire Line
	6880 910  7060 910 
Wire Wire Line
	6410 1050 6630 1050
Wire Wire Line
	6410 1350 6480 1350
Wire Wire Line
	6880 1350 7060 1350
Wire Wire Line
	3650 10140 4000 10140
Connection ~ 4060 3940
Connection ~ 3440 3940
Wire Wire Line
	3790 3440 3790 3640
Wire Bus Line
	2560 2010 2560 4410
Wire Bus Line
	780  8230 1500 8230
Wire Bus Line
	780  7510 1500 7510
Wire Wire Line
	3940 4620 4180 4620
Wire Wire Line
	3260 4620 3540 4620
Wire Wire Line
	3440 4120 3260 4120
Connection ~ 4060 4620
Connection ~ 3440 4620
Wire Wire Line
	3790 4120 4180 4120
Wire Wire Line
	3790 4120 3790 4320
Connection ~ 4060 4120
Wire Wire Line
	3940 2590 4180 2590
Wire Wire Line
	3260 2590 3540 2590
Wire Wire Line
	3440 2090 3260 2090
Connection ~ 4060 2590
Connection ~ 3440 2590
Wire Wire Line
	3790 2090 4180 2090
Wire Wire Line
	3790 2090 3790 2290
Connection ~ 4060 2090
Wire Wire Line
	3940 3260 4180 3260
Wire Wire Line
	3260 3260 3540 3260
Wire Wire Line
	3440 2760 3260 2760
Connection ~ 4060 3260
Connection ~ 3440 3260
Wire Wire Line
	3790 2760 4180 2760
Wire Wire Line
	3790 2760 3790 2960
Connection ~ 4060 2760
Wire Bus Line
	3160 2190 3160 4720
Wire Bus Line
	3160 4720 780  4720
Wire Wire Line
	3260 3440 3440 3440
Wire Wire Line
	3790 3440 4180 3440
Connection ~ 4060 3440
Wire Notes Line
	8090 5780 8290 5780
Wire Notes Line
	8090 5600 8290 5600
Connection ~ 8440 5600
Connection ~ 7940 5600
Connection ~ 7940 5780
Connection ~ 8440 5780
Wire Bus Line
	780  3610 780  8230
Wire Notes Line
	4890 9900 5090 9900
Wire Wire Line
	4600 9900 5380 9900
Connection ~ 5240 9900
Connection ~ 4740 9900
Wire Wire Line
	5850 7200 5940 7200
Wire Wire Line
	5850 7300 5940 7300
Wire Wire Line
	5850 5900 5940 5900
Wire Wire Line
	4960 5900 5050 5900
Wire Wire Line
	5050 6000 4960 6000
Wire Wire Line
	5850 6000 5940 6000
Wire Wire Line
	4960 5500 5050 5500
Wire Wire Line
	4960 5600 5050 5600
Wire Wire Line
	5850 5500 5940 5500
Wire Wire Line
	5850 5600 5940 5600
Wire Wire Line
	5940 5700 5850 5700
Wire Wire Line
	5050 5800 4960 5800
Wire Wire Line
	5850 5800 5940 5800
Wire Wire Line
	4460 5400 5050 5400
Wire Wire Line
	4460 6300 5050 6300
Wire Wire Line
	5050 6400 4460 6400
Wire Wire Line
	4460 6500 5050 6500
Wire Wire Line
	5050 6600 4460 6600
Wire Wire Line
	4460 6700 5050 6700
Wire Wire Line
	5050 6800 4460 6800
Wire Wire Line
	4460 6900 5050 6900
Wire Wire Line
	5050 7000 4460 7000
Wire Wire Line
	4460 7100 5050 7100
Wire Wire Line
	4960 7200 5050 7200
Wire Wire Line
	5050 7300 4960 7300
Wire Wire Line
	5850 6400 6440 6400
Wire Wire Line
	5850 6500 6440 6500
Wire Wire Line
	5850 6600 6440 6600
Wire Wire Line
	5850 6700 6440 6700
Wire Wire Line
	5850 6800 6440 6800
Wire Wire Line
	5850 6900 6440 6900
Wire Wire Line
	5850 7000 6440 7000
Wire Wire Line
	5850 7100 6440 7100
Wire Bus Line
	6540 5320 6540 7400
Wire Bus Line
	4360 5320 4360 7400
Wire Bus Line
	3660 5500 3660 6370
Wire Wire Line
	1100 5500 1360 5500
Connection ~ 1290 5500
Wire Bus Line
	1970 5320 1000 5320
Wire Bus Line
	1000 5320 1000 6000
Wire Bus Line
	2660 5500 2660 7510
Wire Wire Line
	4730 11040 4730 11130
Wire Wire Line
	5230 11040 5230 11130
Wire Notes Line
	4880 11040 5080 11040
Wire Wire Line
	10250 5710 10250 5940
Wire Wire Line
	10350 5710 10480 5710
Wire Wire Line
	10150 5710 10020 5710
Wire Wire Line
	9450 5680 9890 5680
Wire Wire Line
	9890 5680 9890 5940
Wire Wire Line
	9450 5600 9450 5780
Connection ~ 9450 5680
Wire Wire Line
	9890 5940 12220 5940
Connection ~ 10250 5940
Wire Wire Line
	9450 5940 9690 5940
Wire Wire Line
	9690 5940 9690 5450
Wire Wire Line
	9690 5450 9830 5450
Wire Wire Line
	12220 6140 12310 6140
Wire Wire Line
	12310 6140 12310 6180
Wire Wire Line
	12310 6580 12310 6640
Wire Wire Line
	12310 6640 12220 6640
Wire Wire Line
	9600 3300 10230 3300
Wire Wire Line
	10730 3300 10950 3300
Wire Wire Line
	10080 2730 10080 3770
Wire Wire Line
	10080 3770 9560 3770
Wire Wire Line
	9560 3770 9560 3910
Wire Wire Line
	7820 1020 7820 1140
Wire Wire Line
	8020 1020 8020 1140
Wire Wire Line
	9510 1070 9510 900 
Wire Wire Line
	9590 1000 9510 1000
Connection ~ 9510 1000
Wire Wire Line
	9590 850  9590 1000
Wire Wire Line
	6740 1710 6740 2270
Wire Wire Line
	6740 2770 6740 2860
Wire Wire Line
	6740 2820 6970 2820
Connection ~ 6740 2820
Wire Wire Line
	6970 2820 6970 3060
Wire Wire Line
	9100 2560 9390 2560
Wire Wire Line
	10370 1610 10370 1710
Wire Wire Line
	10370 1710 9570 1710
Wire Wire Line
	9570 1710 9570 1490
Wire Wire Line
	9570 1490 6960 1490
Wire Wire Line
	6960 1490 6960 2680
Wire Wire Line
	6960 2680 7200 2680
Wire Wire Line
	7200 2680 7200 2960
Wire Wire Line
	9100 2460 9390 2460
Wire Wire Line
	7200 1910 7080 1910
NoConn ~ 880  3590
NoConn ~ 13250 3990
Wire Wire Line
	13310 1080 13390 1080
Wire Wire Line
	13350 1080 13350 810 
Wire Wire Line
	13350 810  13510 810 
Connection ~ 13350 1080
$EndSCHEMATC
